(kicad_sch
	(version 20231120)
	(generator "eeschema")
	(generator_version "8.0")
	(uuid "ee475edd-7429-4e46-986c-53736003e772")
	(paper "A4")
	(lib_symbols
		(symbol "Interface_USB:CH340C"
			(exclude_from_sim no)
			(in_bom yes)
			(on_board yes)
			(property "Reference" "U"
				(at -5.08 13.97 0)
				(effects
					(font
						(size 1.27 1.27)
					)
					(justify right)
				)
			)
			(property "Value" "CH340C"
				(at 1.27 13.97 0)
				(effects
					(font
						(size 1.27 1.27)
					)
					(justify left)
				)
			)
			(property "Footprint" "Package_SO:SOIC-16_3.9x9.9mm_P1.27mm"
				(at -18.542 30.226 0)
				(effects
					(font
						(size 1.27 1.27)
					)
					(justify left)
					(hide yes)
				)
			)
			(property "Datasheet" "https://datasheet.lcsc.com/szlcsc/Jiangsu-Qin-Heng-CH340C_C84681.pdf"
				(at -6.604 33.274 0)
				(effects
					(font
						(size 1.27 1.27)
					)
					(hide yes)
				)
			)
			(property "Description" "USB serial converter, crystal-less, UART, SOIC-16"
				(at -1.524 36.068 0)
				(effects
					(font
						(size 1.27 1.27)
					)
					(hide yes)
				)
			)
			(property "ki_keywords" "USB UART Serial Converter Interface"
				(at 0 0 0)
				(effects
					(font
						(size 1.27 1.27)
					)
					(hide yes)
				)
			)
			(property "ki_fp_filters" "SOIC*3.9x9.9mm*P1.27mm*"
				(at 0 0 0)
				(effects
					(font
						(size 1.27 1.27)
					)
					(hide yes)
				)
			)
			(symbol "CH340C_0_1"
				(rectangle
					(start -7.62 12.7)
					(end 7.62 -12.7)
					(stroke
						(width 0.254)
						(type default)
					)
					(fill
						(type background)
					)
				)
			)
			(symbol "CH340C_1_1"
				(pin power_in line
					(at 0 -15.24 90)
					(length 2.54)
					(name "GND"
						(effects
							(font
								(size 1.27 1.27)
							)
						)
					)
					(number "1"
						(effects
							(font
								(size 1.27 1.27)
							)
						)
					)
				)
				(pin input line
					(at 10.16 0 180)
					(length 2.54)
					(name "~{DSR}"
						(effects
							(font
								(size 1.27 1.27)
							)
						)
					)
					(number "10"
						(effects
							(font
								(size 1.27 1.27)
							)
						)
					)
				)
				(pin input line
					(at 10.16 -2.54 180)
					(length 2.54)
					(name "~{RI}"
						(effects
							(font
								(size 1.27 1.27)
							)
						)
					)
					(number "11"
						(effects
							(font
								(size 1.27 1.27)
							)
						)
					)
				)
				(pin input line
					(at 10.16 -5.08 180)
					(length 2.54)
					(name "~{DCD}"
						(effects
							(font
								(size 1.27 1.27)
							)
						)
					)
					(number "12"
						(effects
							(font
								(size 1.27 1.27)
							)
						)
					)
				)
				(pin output line
					(at 10.16 -7.62 180)
					(length 2.54)
					(name "~{DTR}"
						(effects
							(font
								(size 1.27 1.27)
							)
						)
					)
					(number "13"
						(effects
							(font
								(size 1.27 1.27)
							)
						)
					)
				)
				(pin output line
					(at 10.16 -10.16 180)
					(length 2.54)
					(name "~{RTS}"
						(effects
							(font
								(size 1.27 1.27)
							)
						)
					)
					(number "14"
						(effects
							(font
								(size 1.27 1.27)
							)
						)
					)
				)
				(pin input line
					(at -10.16 7.62 0)
					(length 2.54)
					(name "R232"
						(effects
							(font
								(size 1.27 1.27)
							)
						)
					)
					(number "15"
						(effects
							(font
								(size 1.27 1.27)
							)
						)
					)
				)
				(pin power_in line
					(at -2.54 15.24 270)
					(length 2.54)
					(name "VCC"
						(effects
							(font
								(size 1.27 1.27)
							)
						)
					)
					(number "16"
						(effects
							(font
								(size 1.27 1.27)
							)
						)
					)
				)
				(pin output line
					(at 10.16 10.16 180)
					(length 2.54)
					(name "TXD"
						(effects
							(font
								(size 1.27 1.27)
							)
						)
					)
					(number "2"
						(effects
							(font
								(size 1.27 1.27)
							)
						)
					)
				)
				(pin input line
					(at 10.16 7.62 180)
					(length 2.54)
					(name "RXD"
						(effects
							(font
								(size 1.27 1.27)
							)
						)
					)
					(number "3"
						(effects
							(font
								(size 1.27 1.27)
							)
						)
					)
				)
				(pin power_out line
					(at 0 15.24 270)
					(length 2.54)
					(name "V3"
						(effects
							(font
								(size 1.27 1.27)
							)
						)
					)
					(number "4"
						(effects
							(font
								(size 1.27 1.27)
							)
						)
					)
				)
				(pin bidirectional line
					(at -10.16 2.54 0)
					(length 2.54)
					(name "UD+"
						(effects
							(font
								(size 1.27 1.27)
							)
						)
					)
					(number "5"
						(effects
							(font
								(size 1.27 1.27)
							)
						)
					)
				)
				(pin bidirectional line
					(at -10.16 0 0)
					(length 2.54)
					(name "UD-"
						(effects
							(font
								(size 1.27 1.27)
							)
						)
					)
					(number "6"
						(effects
							(font
								(size 1.27 1.27)
							)
						)
					)
				)
				(pin no_connect line
					(at -7.62 -5.08 0)
					(length 2.54) hide
					(name "NC"
						(effects
							(font
								(size 1.27 1.27)
							)
						)
					)
					(number "7"
						(effects
							(font
								(size 1.27 1.27)
							)
						)
					)
				)
				(pin no_connect line
					(at -7.62 -7.62 0)
					(length 2.54) hide
					(name "NC"
						(effects
							(font
								(size 1.27 1.27)
							)
						)
					)
					(number "8"
						(effects
							(font
								(size 1.27 1.27)
							)
						)
					)
				)
				(pin input line
					(at 10.16 2.54 180)
					(length 2.54)
					(name "~{CTS}"
						(effects
							(font
								(size 1.27 1.27)
							)
						)
					)
					(number "9"
						(effects
							(font
								(size 1.27 1.27)
							)
						)
					)
				)
			)
		)
		(symbol "Isolator:6N137"
			(pin_names
				(offset 0)
			)
			(exclude_from_sim no)
			(in_bom yes)
			(on_board yes)
			(property "Reference" "U"
				(at -4.064 8.89 0)
				(effects
					(font
						(size 1.27 1.27)
					)
				)
			)
			(property "Value" "6N137"
				(at 0 -8.89 0)
				(effects
					(font
						(size 1.27 1.27)
					)
				)
			)
			(property "Footprint" "Package_DIP:DIP-8_W7.62mm"
				(at 0 -12.7 0)
				(effects
					(font
						(size 1.27 1.27)
					)
					(hide yes)
				)
			)
			(property "Datasheet" "https://docs.broadcom.com/docs/AV02-0940EN"
				(at -21.59 13.97 0)
				(effects
					(font
						(size 1.27 1.27)
					)
					(hide yes)
				)
			)
			(property "Description" "Single High Speed LSTTL/TTL Compatible Optocoupler with enable, dV/dt 1000/us, VCM 10, max 7V VCC, DIP-8"
				(at 0 0 0)
				(effects
					(font
						(size 1.27 1.27)
					)
					(hide yes)
				)
			)
			(property "ki_keywords" "High speed optically coupled gates enable"
				(at 0 0 0)
				(effects
					(font
						(size 1.27 1.27)
					)
					(hide yes)
				)
			)
			(property "ki_fp_filters" "DIP*W7.62mm*"
				(at 0 0 0)
				(effects
					(font
						(size 1.27 1.27)
					)
					(hide yes)
				)
			)
			(symbol "6N137_0_1"
				(polyline
					(pts
						(xy 0 -6.35) (xy -2.286 -6.35) (xy -2.286 -4.064)
					)
					(stroke
						(width 0)
						(type default)
					)
					(fill
						(type none)
					)
				)
				(polyline
					(pts
						(xy -5.08 -2.54) (xy -3.937 -2.54) (xy -3.937 2.54) (xy -5.08 2.54)
					)
					(stroke
						(width 0)
						(type default)
					)
					(fill
						(type none)
					)
				)
				(polyline
					(pts
						(xy 1.27 -5.08) (xy 1.27 -6.35) (xy 0 -6.35) (xy 0 -7.62)
					)
					(stroke
						(width 0)
						(type default)
					)
					(fill
						(type none)
					)
				)
				(polyline
					(pts
						(xy 3.175 -2.667) (xy 0.635 -4.445) (xy 0.635 -0.889) (xy 3.175 -2.667)
					)
					(stroke
						(width 0.254)
						(type default)
					)
					(fill
						(type none)
					)
				)
				(polyline
					(pts
						(xy -2.794 -1.016) (xy -1.717 -2.093) (xy -2.076 -1.914) (xy -1.896 -1.734) (xy -1.717 -2.093)
					)
					(stroke
						(width 0)
						(type default)
					)
					(fill
						(type none)
					)
				)
				(polyline
					(pts
						(xy -2.794 -0.254) (xy -1.717 -1.331) (xy -2.076 -1.152) (xy -1.896 -0.972) (xy -1.717 -1.331)
					)
					(stroke
						(width 0)
						(type default)
					)
					(fill
						(type none)
					)
				)
			)
			(symbol "6N137_1_1"
				(rectangle
					(start -5.08 7.62)
					(end 5.08 -7.62)
					(stroke
						(width 0.254)
						(type default)
					)
					(fill
						(type background)
					)
				)
				(circle
					(center 0 -6.35)
					(radius 0.127)
					(stroke
						(width 0)
						(type default)
					)
					(fill
						(type outline)
					)
				)
				(polyline
					(pts
						(xy -4.572 -0.635) (xy -3.302 -0.635)
					)
					(stroke
						(width 0.254)
						(type default)
					)
					(fill
						(type none)
					)
				)
				(polyline
					(pts
						(xy -2.286 -1.778) (xy -2.286 -3.048)
					)
					(stroke
						(width 0)
						(type default)
					)
					(fill
						(type none)
					)
				)
				(polyline
					(pts
						(xy -2.286 0.508) (xy -2.286 -0.762)
					)
					(stroke
						(width 0)
						(type default)
					)
					(fill
						(type none)
					)
				)
				(polyline
					(pts
						(xy -2.286 2.794) (xy -2.286 1.524)
					)
					(stroke
						(width 0)
						(type default)
					)
					(fill
						(type none)
					)
				)
				(polyline
					(pts
						(xy -2.286 5.08) (xy -2.286 3.81)
					)
					(stroke
						(width 0)
						(type default)
					)
					(fill
						(type none)
					)
				)
				(polyline
					(pts
						(xy -2.286 7.366) (xy -2.286 6.096)
					)
					(stroke
						(width 0)
						(type default)
					)
					(fill
						(type none)
					)
				)
				(polyline
					(pts
						(xy -1.27 -1.905) (xy 0 -1.905)
					)
					(stroke
						(width 0.254)
						(type default)
					)
					(fill
						(type none)
					)
				)
				(polyline
					(pts
						(xy -0.635 -3.302) (xy -0.635 -3.683) (xy 0.635 -3.683)
					)
					(stroke
						(width 0)
						(type default)
					)
					(fill
						(type none)
					)
				)
				(polyline
					(pts
						(xy -0.635 -1.905) (xy -0.635 -1.524) (xy 0.508 -1.524)
					)
					(stroke
						(width 0)
						(type default)
					)
					(fill
						(type none)
					)
				)
				(polyline
					(pts
						(xy 1.27 -4.064) (xy 1.27 -6.35) (xy 4.445 -6.35)
					)
					(stroke
						(width 0)
						(type default)
					)
					(fill
						(type none)
					)
				)
				(polyline
					(pts
						(xy 3.175 -2.667) (xy 4.445 -3.302) (xy 4.445 -6.35)
					)
					(stroke
						(width 0)
						(type default)
					)
					(fill
						(type none)
					)
				)
				(polyline
					(pts
						(xy -3.937 -0.635) (xy -4.572 0.635) (xy -3.302 0.635) (xy -3.937 -0.635)
					)
					(stroke
						(width 0.254)
						(type default)
					)
					(fill
						(type none)
					)
				)
				(polyline
					(pts
						(xy -0.635 -1.905) (xy -1.27 -3.175) (xy 0 -3.175) (xy -0.635 -1.905)
					)
					(stroke
						(width 0.254)
						(type default)
					)
					(fill
						(type none)
					)
				)
				(polyline
					(pts
						(xy 1.27 -1.27) (xy 1.27 1.27) (xy 0 1.27) (xy 0 7.62)
					)
					(stroke
						(width 0)
						(type default)
					)
					(fill
						(type none)
					)
				)
				(polyline
					(pts
						(xy 2.1844 -1.1684) (xy 2.413 -0.889) (xy 2.413 2.54) (xy 5.08 2.54)
					)
					(stroke
						(width 0)
						(type default)
					)
					(fill
						(type none)
					)
				)
				(polyline
					(pts
						(xy 3.175 -2.667) (xy 3.175 -4.318) (xy 2.667 -4.318) (xy 2.667 -3.937)
					)
					(stroke
						(width 0.254)
						(type default)
					)
					(fill
						(type none)
					)
				)
				(polyline
					(pts
						(xy 3.175 -2.667) (xy 3.175 -1.016) (xy 3.683 -1.016) (xy 3.683 -1.397)
					)
					(stroke
						(width 0.254)
						(type default)
					)
					(fill
						(type none)
					)
				)
				(polyline
					(pts
						(xy 3.175 -2.667) (xy 4.445 -2.032) (xy 4.445 0) (xy 5.08 0)
					)
					(stroke
						(width 0)
						(type default)
					)
					(fill
						(type none)
					)
				)
				(polyline
					(pts
						(xy 4.445 -3.302) (xy 4.161 -3.018) (xy 4.047 -3.246) (xy 4.445 -3.302)
					)
					(stroke
						(width 0.127)
						(type default)
					)
					(fill
						(type outline)
					)
				)
				(circle
					(center 1.27 -6.35)
					(radius 0.127)
					(stroke
						(width 0)
						(type default)
					)
					(fill
						(type outline)
					)
				)
				(circle
					(center 2.032 -1.397)
					(radius 0.254)
					(stroke
						(width 0)
						(type default)
					)
					(fill
						(type none)
					)
				)
				(pin passive line
					(at -7.62 5.08 0)
					(length 2.54)
					(name "NC"
						(effects
							(font
								(size 0.635 0.635)
							)
						)
					)
					(number "1"
						(effects
							(font
								(size 1.27 1.27)
							)
						)
					)
				)
				(pin passive line
					(at -7.62 2.54 0)
					(length 2.54)
					(name "A"
						(effects
							(font
								(size 0.635 0.635)
							)
						)
					)
					(number "2"
						(effects
							(font
								(size 1.27 1.27)
							)
						)
					)
				)
				(pin passive line
					(at -7.62 -2.54 0)
					(length 2.54)
					(name "C"
						(effects
							(font
								(size 0.635 0.635)
							)
						)
					)
					(number "3"
						(effects
							(font
								(size 1.27 1.27)
							)
						)
					)
				)
				(pin passive line
					(at -7.62 -5.08 0)
					(length 2.54)
					(name "NC"
						(effects
							(font
								(size 0.635 0.635)
							)
						)
					)
					(number "4"
						(effects
							(font
								(size 1.27 1.27)
							)
						)
					)
				)
				(pin power_in line
					(at 0 -10.16 90)
					(length 2.54)
					(name "GND"
						(effects
							(font
								(size 0.635 0.635)
							)
						)
					)
					(number "5"
						(effects
							(font
								(size 1.27 1.27)
							)
						)
					)
				)
				(pin open_collector line
					(at 7.62 0 180)
					(length 2.54)
					(name "VO"
						(effects
							(font
								(size 0.635 0.635)
							)
						)
					)
					(number "6"
						(effects
							(font
								(size 1.27 1.27)
							)
						)
					)
				)
				(pin input line
					(at 7.62 2.54 180)
					(length 2.54)
					(name "EN"
						(effects
							(font
								(size 0.635 0.635)
							)
						)
					)
					(number "7"
						(effects
							(font
								(size 1.27 1.27)
							)
						)
					)
				)
				(pin power_in line
					(at 0 10.16 270)
					(length 2.54)
					(name "VCC"
						(effects
							(font
								(size 0.635 0.635)
							)
						)
					)
					(number "8"
						(effects
							(font
								(size 1.27 1.27)
							)
						)
					)
				)
			)
		)
		(symbol "xDevice:C"
			(pin_numbers hide)
			(pin_names
				(offset 0.254) hide)
			(exclude_from_sim no)
			(in_bom yes)
			(on_board yes)
			(property "Reference" "C"
				(at 2.54 0.635 0)
				(effects
					(font
						(size 0.889 0.889)
					)
				)
			)
			(property "Value" "C"
				(at 2.54 -0.635 0)
				(effects
					(font
						(size 0.889 0.889)
					)
				)
			)
			(property "Footprint" ""
				(at 0 0 0)
				(effects
					(font
						(size 1.27 1.27)
					)
					(hide yes)
				)
			)
			(property "Datasheet" ""
				(at 0 0 0)
				(effects
					(font
						(size 1.27 1.27)
					)
					(hide yes)
				)
			)
			(property "Description" "Capacitor"
				(at 0 -3.81 0)
				(effects
					(font
						(size 1.27 1.27)
					)
					(hide yes)
				)
			)
			(property "ki_keywords" "capacitor"
				(at 0 0 0)
				(effects
					(font
						(size 1.27 1.27)
					)
					(hide yes)
				)
			)
			(symbol "C_0_1"
				(polyline
					(pts
						(xy -1.27 0.508) (xy 1.27 0.508)
					)
					(stroke
						(width 0.3048)
						(type default)
					)
					(fill
						(type none)
					)
				)
			)
			(symbol "C_0_2"
				(polyline
					(pts
						(xy -1.27 -0.508) (xy 1.27 -0.508)
					)
					(stroke
						(width 0.3048)
						(type default)
					)
					(fill
						(type none)
					)
				)
			)
			(symbol "C_1_1"
				(circle
					(center -0.508 1.778)
					(radius 0.1796)
					(stroke
						(width 0)
						(type default)
					)
					(fill
						(type outline)
					)
				)
				(arc
					(start 1.27 -0.4983)
					(mid 0 -0.245)
					(end -1.27 -0.4983)
					(stroke
						(width 0.3048)
						(type default)
					)
					(fill
						(type none)
					)
				)
				(pin passive line
					(at 0 2.54 270)
					(length 2.032)
					(name "~"
						(effects
							(font
								(size 1.27 1.27)
							)
						)
					)
					(number "1"
						(effects
							(font
								(size 1.016 1.016)
							)
						)
					)
				)
				(pin passive line
					(at 0 -2.54 90)
					(length 2.286)
					(name "~"
						(effects
							(font
								(size 1.27 1.27)
							)
						)
					)
					(number "2"
						(effects
							(font
								(size 1.016 1.016)
							)
						)
					)
				)
			)
			(symbol "C_1_2"
				(arc
					(start -1.27 0.4983)
					(mid 0 0.245)
					(end 1.27 0.4983)
					(stroke
						(width 0.3048)
						(type default)
					)
					(fill
						(type none)
					)
				)
				(circle
					(center -0.508 1.778)
					(radius 0.1796)
					(stroke
						(width 0)
						(type default)
					)
					(fill
						(type outline)
					)
				)
				(pin passive line
					(at 0 2.54 270)
					(length 2.286)
					(name "~"
						(effects
							(font
								(size 1.27 1.27)
							)
						)
					)
					(number "1"
						(effects
							(font
								(size 1.016 1.016)
							)
						)
					)
				)
				(pin passive line
					(at 0 -2.54 90)
					(length 2.032)
					(name "~"
						(effects
							(font
								(size 1.27 1.27)
							)
						)
					)
					(number "2"
						(effects
							(font
								(size 1.016 1.016)
							)
						)
					)
				)
			)
		)
		(symbol "xDevice:D_Zener"
			(pin_numbers hide)
			(pin_names
				(offset 1.016) hide)
			(exclude_from_sim no)
			(in_bom yes)
			(on_board yes)
			(property "Reference" "DZ"
				(at 3.81 0.635 0)
				(effects
					(font
						(size 0.889 0.889)
					)
				)
			)
			(property "Value" "D_Zener"
				(at 3.81 -0.635 0)
				(effects
					(font
						(size 0.889 0.889)
					)
				)
			)
			(property "Footprint" ""
				(at 0 0 90)
				(effects
					(font
						(size 1.27 1.27)
					)
					(hide yes)
				)
			)
			(property "Datasheet" ""
				(at 0 0 90)
				(effects
					(font
						(size 1.27 1.27)
					)
					(hide yes)
				)
			)
			(property "Description" "Zener diode"
				(at 0 -4.191 0)
				(effects
					(font
						(size 1.27 1.27)
					)
					(hide yes)
				)
			)
			(property "ki_keywords" "diode"
				(at 0 0 0)
				(effects
					(font
						(size 1.27 1.27)
					)
					(hide yes)
				)
			)
			(property "ki_fp_filters" "TO-???* *_Diode_* *SingleDiode* D_*"
				(at 0 0 0)
				(effects
					(font
						(size 1.27 1.27)
					)
					(hide yes)
				)
			)
			(symbol "D_Zener_0_1"
				(polyline
					(pts
						(xy -0.889 1.016) (xy 0.889 1.016) (xy 0.889 0.508)
					)
					(stroke
						(width 0.254)
						(type default)
					)
					(fill
						(type none)
					)
				)
				(polyline
					(pts
						(xy 0.889 -1.016) (xy -0.889 -1.016) (xy 0 1.016) (xy 0.889 -1.016)
					)
					(stroke
						(width 0.254)
						(type default)
					)
					(fill
						(type none)
					)
				)
			)
			(symbol "D_Zener_1_1"
				(pin passive line
					(at 0 2.54 270)
					(length 1.524)
					(name "K"
						(effects
							(font
								(size 0.889 0.889)
							)
						)
					)
					(number "1"
						(effects
							(font
								(size 0.889 0.889)
							)
						)
					)
				)
				(pin passive line
					(at 0 -2.54 90)
					(length 1.524)
					(name "A"
						(effects
							(font
								(size 0.889 0.889)
							)
						)
					)
					(number "2"
						(effects
							(font
								(size 0.889 0.889)
							)
						)
					)
				)
			)
		)
		(symbol "xDevice:FerriteBead"
			(pin_numbers hide)
			(pin_names
				(offset 0)
			)
			(exclude_from_sim no)
			(in_bom yes)
			(on_board yes)
			(property "Reference" "L"
				(at 1.905 1.27 0)
				(effects
					(font
						(size 1.27 1.27)
					)
					(justify left)
				)
			)
			(property "Value" "FerriteBead"
				(at 1.905 -1.27 0)
				(effects
					(font
						(size 1.27 1.27)
					)
					(justify left)
				)
			)
			(property "Footprint" ""
				(at -1.778 0 90)
				(effects
					(font
						(size 1.27 1.27)
					)
					(hide yes)
				)
			)
			(property "Datasheet" "~"
				(at 0 0 0)
				(effects
					(font
						(size 1.27 1.27)
					)
					(hide yes)
				)
			)
			(property "Description" "Ferrite bead, small symbol"
				(at 0 0 0)
				(effects
					(font
						(size 1.27 1.27)
					)
					(hide yes)
				)
			)
			(property "ki_keywords" "L ferrite bead inductor filter"
				(at 0 0 0)
				(effects
					(font
						(size 1.27 1.27)
					)
					(hide yes)
				)
			)
			(property "ki_fp_filters" "Inductor_* L_* *Ferrite*"
				(at 0 0 0)
				(effects
					(font
						(size 1.27 1.27)
					)
					(hide yes)
				)
			)
			(symbol "FerriteBead_0_0"
				(arc
					(start -1.1938 -0.6096)
					(mid 0 -1.1031)
					(end 1.1938 -0.6097)
					(stroke
						(width 0.1524)
						(type default)
					)
					(fill
						(type none)
					)
				)
				(arc
					(start -0.5334 -0.3556)
					(mid 0.0127 -0.5817)
					(end 0.5588 -0.3556)
					(stroke
						(width 0.1524)
						(type default)
					)
					(fill
						(type none)
					)
				)
				(polyline
					(pts
						(xy -1.1938 -0.6096) (xy -1.1938 0.7874)
					)
					(stroke
						(width 0.1524)
						(type default)
					)
					(fill
						(type none)
					)
				)
				(polyline
					(pts
						(xy 0 -1.0922) (xy 0 -0.1778)
					)
					(stroke
						(width 0.1524)
						(type default)
					)
					(fill
						(type none)
					)
				)
				(polyline
					(pts
						(xy 1.1938 -0.6096) (xy 1.1938 0.7874)
					)
					(stroke
						(width 0.1524)
						(type default)
					)
					(fill
						(type none)
					)
				)
				(arc
					(start 0.5588 -0.3556)
					(mid 0.0127 -0.1296)
					(end -0.5334 -0.3556)
					(stroke
						(width 0.1524)
						(type default)
					)
					(fill
						(type none)
					)
				)
				(arc
					(start 1.1938 -0.1016)
					(mid 0 0.3923)
					(end -1.1938 -0.1016)
					(stroke
						(width 0.1524)
						(type default)
					)
					(fill
						(type none)
					)
				)
				(arc
					(start 1.1938 0.7875)
					(mid 0 1.2809)
					(end -1.1938 0.7874)
					(stroke
						(width 0.1524)
						(type default)
					)
					(fill
						(type none)
					)
				)
			)
			(symbol "FerriteBead_1_1"
				(circle
					(center -0.635 1.905)
					(radius 0.1796)
					(stroke
						(width 0)
						(type default)
					)
					(fill
						(type outline)
					)
				)
				(pin passive line
					(at 0 2.54 270)
					(length 1.2446)
					(name "~"
						(effects
							(font
								(size 1.27 1.27)
							)
						)
					)
					(number "1"
						(effects
							(font
								(size 1.016 1.016)
							)
						)
					)
				)
				(pin passive line
					(at 0 -2.54 90)
					(length 1.4224)
					(name "~"
						(effects
							(font
								(size 1.27 1.27)
							)
						)
					)
					(number "2"
						(effects
							(font
								(size 1.016 1.016)
							)
						)
					)
				)
			)
		)
		(symbol "xDevice:R"
			(pin_numbers hide)
			(pin_names
				(offset 0)
			)
			(exclude_from_sim no)
			(in_bom yes)
			(on_board yes)
			(property "Reference" "R"
				(at 2.54 0.635 0)
				(effects
					(font
						(size 0.889 0.889)
					)
				)
			)
			(property "Value" "R"
				(at 2.54 -0.635 0)
				(effects
					(font
						(size 0.889 0.889)
					)
				)
			)
			(property "Footprint" ""
				(at 1.016 -0.254 90)
				(effects
					(font
						(size 1.27 1.27)
					)
					(hide yes)
				)
			)
			(property "Datasheet" ""
				(at 0 0 0)
				(effects
					(font
						(size 1.27 1.27)
					)
					(hide yes)
				)
			)
			(property "Description" "Resistor"
				(at 0 -3.81 0)
				(effects
					(font
						(size 1.27 1.27)
					)
					(hide yes)
				)
			)
			(property "ki_keywords" "R res resistor"
				(at 0 0 0)
				(effects
					(font
						(size 1.27 1.27)
					)
					(hide yes)
				)
			)
			(property "ki_fp_filters" "R_*"
				(at 0 0 0)
				(effects
					(font
						(size 1.27 1.27)
					)
					(hide yes)
				)
			)
			(symbol "R_0_1"
				(polyline
					(pts
						(xy 0 -0.508) (xy 0.762 -0.762) (xy 0 -1.016) (xy -0.762 -1.27) (xy 0 -1.524)
					)
					(stroke
						(width 0)
						(type default)
					)
					(fill
						(type none)
					)
				)
				(polyline
					(pts
						(xy 0 0.508) (xy 0.762 0.254) (xy 0 0) (xy -0.762 -0.254) (xy 0 -0.508)
					)
					(stroke
						(width 0)
						(type default)
					)
					(fill
						(type none)
					)
				)
				(polyline
					(pts
						(xy 0 1.524) (xy 0.762 1.27) (xy 0 1.016) (xy -0.762 0.762) (xy 0 0.508)
					)
					(stroke
						(width 0)
						(type default)
					)
					(fill
						(type none)
					)
				)
			)
			(symbol "R_1_1"
				(circle
					(center -0.635 1.905)
					(radius 0.1796)
					(stroke
						(width 0)
						(type default)
					)
					(fill
						(type outline)
					)
				)
				(pin passive line
					(at 0 2.54 270)
					(length 1.016)
					(name "~"
						(effects
							(font
								(size 1.27 1.27)
							)
						)
					)
					(number "1"
						(effects
							(font
								(size 1.016 1.016)
							)
						)
					)
				)
				(pin passive line
					(at 0 -2.54 90)
					(length 1.016)
					(name "~"
						(effects
							(font
								(size 1.27 1.27)
							)
						)
					)
					(number "2"
						(effects
							(font
								(size 1.016 1.016)
							)
						)
					)
				)
			)
		)
		(symbol "xPower:+xV"
			(power)
			(pin_numbers hide)
			(pin_names
				(offset 0) hide)
			(exclude_from_sim no)
			(in_bom yes)
			(on_board yes)
			(property "Reference" "#PWR"
				(at 0 -3.81 0)
				(effects
					(font
						(size 1.27 1.27)
					)
					(hide yes)
				)
			)
			(property "Value" "+xV"
				(at 0 1.778 0)
				(effects
					(font
						(size 0.889 0.889)
					)
				)
			)
			(property "Footprint" ""
				(at 0 0 0)
				(effects
					(font
						(size 1.27 1.27)
					)
					(hide yes)
				)
			)
			(property "Datasheet" ""
				(at 0 0 0)
				(effects
					(font
						(size 1.27 1.27)
					)
					(hide yes)
				)
			)
			(property "Description" "Generic positive power symbol"
				(at 0 0 0)
				(effects
					(font
						(size 1.27 1.27)
					)
					(hide yes)
				)
			)
			(property "ki_keywords" "global power"
				(at 0 0 0)
				(effects
					(font
						(size 1.27 1.27)
					)
					(hide yes)
				)
			)
			(symbol "+xV_0_1"
				(polyline
					(pts
						(xy 0 0) (xy 0 1.016)
					)
					(stroke
						(width 0)
						(type default)
					)
					(fill
						(type none)
					)
				)
			)
			(symbol "+xV_1_1"
				(pin power_in line
					(at 0 0 90)
					(length 0)
					(name "~"
						(effects
							(font
								(size 1.27 1.27)
							)
						)
					)
					(number "1"
						(effects
							(font
								(size 1.27 1.27)
							)
						)
					)
				)
			)
		)
		(symbol "xPower:GND"
			(power)
			(pin_numbers hide)
			(pin_names
				(offset 0) hide)
			(exclude_from_sim no)
			(in_bom yes)
			(on_board yes)
			(property "Reference" "#PWR"
				(at 0 -5.08 0)
				(effects
					(font
						(size 1.27 1.27)
					)
					(hide yes)
				)
			)
			(property "Value" "GND"
				(at 0 -3.302 0)
				(effects
					(font
						(size 1.27 1.27)
					)
					(hide yes)
				)
			)
			(property "Footprint" ""
				(at 0 -0.508 0)
				(effects
					(font
						(size 1.27 1.27)
					)
					(hide yes)
				)
			)
			(property "Datasheet" ""
				(at 0 -0.508 0)
				(effects
					(font
						(size 1.27 1.27)
					)
					(hide yes)
				)
			)
			(property "Description" "Ground symbol, triangular"
				(at 0 -6.35 0)
				(effects
					(font
						(size 1.27 1.27)
					)
					(hide yes)
				)
			)
			(property "ki_keywords" "global ground"
				(at 0 0 0)
				(effects
					(font
						(size 1.27 1.27)
					)
					(hide yes)
				)
			)
			(symbol "GND_0_1"
				(polyline
					(pts
						(xy 0 -0.508) (xy 0 0)
					)
					(stroke
						(width 0)
						(type default)
					)
					(fill
						(type none)
					)
				)
				(polyline
					(pts
						(xy -0.762 -0.508) (xy 0.762 -0.508) (xy 0 -1.27) (xy -0.762 -0.508)
					)
					(stroke
						(width 0)
						(type default)
					)
					(fill
						(type none)
					)
				)
			)
			(symbol "GND_1_1"
				(pin power_in line
					(at 0 0 270)
					(length 0)
					(name "~"
						(effects
							(font
								(size 1.27 1.27)
							)
						)
					)
					(number "1"
						(effects
							(font
								(size 1.27 1.27)
							)
						)
					)
				)
			)
		)
	)
	(junction
		(at 135.89 77.47)
		(diameter 0)
		(color 0 0 0 0)
		(uuid "0e1edf88-c34e-47eb-a7d1-082af82bce68")
	)
	(junction
		(at 64.135 93.345)
		(diameter 0)
		(color 0 0 0 0)
		(uuid "1f2e1c3a-7c50-4946-88b0-e3c1ecd24ee0")
	)
	(junction
		(at 96.52 120.015)
		(diameter 0)
		(color 0 0 0 0)
		(uuid "2fde6e9b-d802-4e58-934f-7975042f22dd")
	)
	(junction
		(at 96.52 77.47)
		(diameter 0)
		(color 0 0 0 0)
		(uuid "31c5626c-9723-4477-baa8-df257b335d2e")
	)
	(junction
		(at 120.65 120.015)
		(diameter 0)
		(color 0 0 0 0)
		(uuid "32cc0445-4c23-4892-803f-5cb06a81fb92")
	)
	(junction
		(at 64.135 120.015)
		(diameter 0)
		(color 0 0 0 0)
		(uuid "3475ac02-503f-4eba-afdc-c64f266ab7e8")
	)
	(junction
		(at 77.47 77.47)
		(diameter 0)
		(color 0 0 0 0)
		(uuid "4409cca5-e73a-4dde-bd45-25552c84d448")
	)
	(junction
		(at 69.85 120.015)
		(diameter 0)
		(color 0 0 0 0)
		(uuid "46a2d367-19a1-4c17-a1f9-3974c39de4c4")
	)
	(junction
		(at 133.35 95.885)
		(diameter 0)
		(color 0 0 0 0)
		(uuid "4a51a8b4-a5ed-4e53-bf1b-0e78d0a258e1")
	)
	(junction
		(at 152.4 88.265)
		(diameter 0)
		(color 0 0 0 0)
		(uuid "4fabeac7-b244-4d69-817b-b3b9666475cb")
	)
	(junction
		(at 58.42 120.015)
		(diameter 0)
		(color 0 0 0 0)
		(uuid "5313ff4f-9fd6-4a82-be39-d9a4c96e662b")
	)
	(junction
		(at 170.18 72.39)
		(diameter 0)
		(color 0 0 0 0)
		(uuid "5cd65a20-5b1e-4aca-94cb-2bcc083eafaf")
	)
	(junction
		(at 58.42 95.885)
		(diameter 0)
		(color 0 0 0 0)
		(uuid "670b1dd2-31f3-4f1a-ab29-854f3a23c60e")
	)
	(junction
		(at 104.14 120.015)
		(diameter 0)
		(color 0 0 0 0)
		(uuid "716eae1c-6f97-4c3d-9a17-58a18eccc701")
	)
	(junction
		(at 88.9 120.015)
		(diameter 0)
		(color 0 0 0 0)
		(uuid "790cdafd-f863-4fb8-8af7-1d5de12fb54a")
	)
	(junction
		(at 155.575 80.645)
		(diameter 0)
		(color 0 0 0 0)
		(uuid "7e1c5906-f634-4228-884a-bdd6afca3e3b")
	)
	(junction
		(at 155.575 93.98)
		(diameter 0)
		(color 0 0 0 0)
		(uuid "82e62006-b67b-4a87-a6ac-9ddfdf5acb8a")
	)
	(junction
		(at 182.88 83.185)
		(diameter 0)
		(color 0 0 0 0)
		(uuid "91e8b570-b40e-4c18-a03b-65cbaffcc66f")
	)
	(junction
		(at 133.35 120.015)
		(diameter 0)
		(color 0 0 0 0)
		(uuid "9a86e814-f107-449c-830a-ff800d00c9d8")
	)
	(junction
		(at 118.11 77.47)
		(diameter 0)
		(color 0 0 0 0)
		(uuid "a62c7a08-3b4b-46c9-acf4-cb51e5922c5f")
	)
	(junction
		(at 88.9 77.47)
		(diameter 0)
		(color 0 0 0 0)
		(uuid "b2dda9e3-5aa8-4061-b963-2faf86f26157")
	)
	(junction
		(at 152.4 77.47)
		(diameter 0)
		(color 0 0 0 0)
		(uuid "ce580cdf-caae-4d16-bb14-21bafcaf925a")
	)
	(junction
		(at 77.47 120.015)
		(diameter 0)
		(color 0 0 0 0)
		(uuid "e2f3a6e1-3567-4cbb-95c3-7d78b637236f")
	)
	(junction
		(at 69.85 77.47)
		(diameter 0)
		(color 0 0 0 0)
		(uuid "fb0e0755-ea45-4851-8a21-b8a40dbbc705")
	)
	(no_connect
		(at 173.355 101.6)
		(uuid "30b82a62-8394-4f9e-8d48-bb82f70c2146")
	)
	(no_connect
		(at 130.81 100.965)
		(uuid "54dcc5a3-dd52-4db3-be78-13830007e6f4")
	)
	(no_connect
		(at 130.81 106.045)
		(uuid "559705f0-89e1-41bb-bda1-51e6f5520833")
	)
	(no_connect
		(at 162.56 88.265)
		(uuid "5eed4118-f50c-4ef3-a174-241f03ea6c5f")
	)
	(no_connect
		(at 130.81 103.505)
		(uuid "727d062a-fe60-4c64-8aaf-1ad5c428c7b2")
	)
	(no_connect
		(at 173.355 111.76)
		(uuid "a19f0ad3-cf4c-4173-a25e-8de39c5a17e0")
	)
	(no_connect
		(at 162.56 78.105)
		(uuid "a8e44334-a165-4e86-a3e3-da0e47bd537c")
	)
	(no_connect
		(at 110.49 88.265)
		(uuid "fd04a97b-922b-4530-b29c-977cfd6b876f")
	)
	(wire
		(pts
			(xy 77.47 120.015) (xy 88.9 120.015)
		)
		(stroke
			(width 0)
			(type default)
		)
		(uuid "03212140-3452-4d1b-82e5-05781d9f8891")
	)
	(wire
		(pts
			(xy 57.785 77.47) (xy 69.85 77.47)
		)
		(stroke
			(width 0)
			(type default)
		)
		(uuid "10bae716-e8a7-403d-ade8-50499e1d1190")
	)
	(wire
		(pts
			(xy 130.81 95.885) (xy 133.35 95.885)
		)
		(stroke
			(width 0)
			(type default)
		)
		(uuid "118a5fdc-3308-4940-bf6f-5bdc8cffe0de")
	)
	(wire
		(pts
			(xy 182.88 81.915) (xy 182.88 83.185)
		)
		(stroke
			(width 0)
			(type default)
		)
		(uuid "12284eed-39b5-4072-8686-baa2c3456608")
	)
	(wire
		(pts
			(xy 120.65 120.015) (xy 133.35 120.015)
		)
		(stroke
			(width 0)
			(type default)
		)
		(uuid "143be9cf-b472-4264-9941-88ac02834d2e")
	)
	(wire
		(pts
			(xy 77.47 77.47) (xy 77.47 84.455)
		)
		(stroke
			(width 0)
			(type default)
		)
		(uuid "16e6d4b5-7503-41c8-ab6f-121a660c36e0")
	)
	(wire
		(pts
			(xy 88.9 89.535) (xy 88.9 120.015)
		)
		(stroke
			(width 0)
			(type default)
		)
		(uuid "1b43f86d-c457-4cb7-a526-dd72d846ef86")
	)
	(wire
		(pts
			(xy 155.575 80.645) (xy 162.56 80.645)
		)
		(stroke
			(width 0)
			(type default)
		)
		(uuid "1bbbbde0-26dd-4e2a-b03b-32b326b53ed6")
	)
	(wire
		(pts
			(xy 69.85 109.22) (xy 69.85 120.015)
		)
		(stroke
			(width 0)
			(type default)
		)
		(uuid "1ce1c45c-f3a6-4481-928e-8c98534439b9")
	)
	(wire
		(pts
			(xy 182.88 103.505) (xy 182.88 104.14)
		)
		(stroke
			(width 0)
			(type default)
		)
		(uuid "2000d4ec-20ad-4db2-a7e4-663759dddf79")
	)
	(wire
		(pts
			(xy 155.575 77.47) (xy 155.575 80.645)
		)
		(stroke
			(width 0)
			(type default)
		)
		(uuid "21cc144b-12b8-48f5-8ba4-796718fd4d2f")
	)
	(wire
		(pts
			(xy 120.65 80.645) (xy 120.65 80.01)
		)
		(stroke
			(width 0)
			(type default)
		)
		(uuid "2939dd54-1ebc-4c88-b98d-789e0c4c8eb1")
	)
	(wire
		(pts
			(xy 77.47 89.535) (xy 77.47 120.015)
		)
		(stroke
			(width 0)
			(type default)
		)
		(uuid "2c580e3f-3e2a-438a-af5b-8de35eb76a73")
	)
	(wire
		(pts
			(xy 64.135 109.22) (xy 64.135 120.015)
		)
		(stroke
			(width 0)
			(type default)
		)
		(uuid "2fe90253-73c0-4b25-8fbd-7885ace50e91")
	)
	(wire
		(pts
			(xy 96.52 77.47) (xy 118.11 77.47)
		)
		(stroke
			(width 0)
			(type default)
		)
		(uuid "33f2c6f3-1d5b-48e9-8824-f3934a0ea28f")
	)
	(wire
		(pts
			(xy 146.685 85.725) (xy 162.56 85.725)
		)
		(stroke
			(width 0)
			(type default)
		)
		(uuid "355d7b47-2402-4b6d-86e1-e0d157cf91f3")
	)
	(wire
		(pts
			(xy 120.65 111.125) (xy 120.65 120.015)
		)
		(stroke
			(width 0)
			(type default)
		)
		(uuid "364663c4-5ed7-480b-99ac-f281edfdcda8")
	)
	(wire
		(pts
			(xy 69.85 77.47) (xy 77.47 77.47)
		)
		(stroke
			(width 0)
			(type default)
		)
		(uuid "3ab25c77-5c84-41dd-a0eb-7f70701ccab5")
	)
	(wire
		(pts
			(xy 104.14 89.535) (xy 104.14 120.015)
		)
		(stroke
			(width 0)
			(type default)
		)
		(uuid "4047650e-a16f-4209-bbca-5ce3e07f676c")
	)
	(wire
		(pts
			(xy 120.65 80.01) (xy 104.14 80.01)
		)
		(stroke
			(width 0)
			(type default)
		)
		(uuid "431bb35a-3efd-4c91-a50b-4e2eda0a378e")
	)
	(wire
		(pts
			(xy 182.88 83.185) (xy 189.865 83.185)
		)
		(stroke
			(width 0)
			(type default)
		)
		(uuid "4467968d-9d9b-4f9f-bf5c-42450b262eaf")
	)
	(wire
		(pts
			(xy 170.18 72.39) (xy 170.18 73.025)
		)
		(stroke
			(width 0)
			(type default)
		)
		(uuid "48163e11-a2fa-4665-aa97-955e4a4bf201")
	)
	(wire
		(pts
			(xy 165.735 120.015) (xy 165.735 116.84)
		)
		(stroke
			(width 0)
			(type default)
		)
		(uuid "4c17d636-1e8b-4251-a067-2ea5eb3ba175")
	)
	(wire
		(pts
			(xy 64.135 93.345) (xy 64.135 104.14)
		)
		(stroke
			(width 0)
			(type default)
		)
		(uuid "506b060c-cc57-47e7-8d96-8ad0931a6505")
	)
	(wire
		(pts
			(xy 57.785 120.015) (xy 58.42 120.015)
		)
		(stroke
			(width 0)
			(type default)
		)
		(uuid "52e489b0-80e8-462c-9e7b-7e00508d3994")
	)
	(wire
		(pts
			(xy 96.52 89.535) (xy 96.52 120.015)
		)
		(stroke
			(width 0)
			(type default)
		)
		(uuid "54b1f000-7883-4b73-8fcb-e2a2e5f7a1f5")
	)
	(wire
		(pts
			(xy 118.11 77.47) (xy 135.89 77.47)
		)
		(stroke
			(width 0)
			(type default)
		)
		(uuid "550318ac-9bd4-4131-b2f9-27b53b37c304")
	)
	(wire
		(pts
			(xy 152.4 77.47) (xy 155.575 77.47)
		)
		(stroke
			(width 0)
			(type default)
		)
		(uuid "597aa8c3-e381-4dc3-8c87-43752aac37b4")
	)
	(wire
		(pts
			(xy 58.42 120.015) (xy 64.135 120.015)
		)
		(stroke
			(width 0)
			(type default)
		)
		(uuid "5af31376-e563-4522-87e8-02d3c437ee53")
	)
	(wire
		(pts
			(xy 130.81 98.425) (xy 135.89 98.425)
		)
		(stroke
			(width 0)
			(type default)
		)
		(uuid "5e7eede5-b228-4e51-aba1-6f14a4ebe9e3")
	)
	(wire
		(pts
			(xy 170.18 72.39) (xy 177.8 72.39)
		)
		(stroke
			(width 0)
			(type default)
		)
		(uuid "5f768590-935c-4ccb-bfd6-772f98f61fd4")
	)
	(wire
		(pts
			(xy 152.4 77.47) (xy 152.4 79.375)
		)
		(stroke
			(width 0)
			(type default)
		)
		(uuid "60b2ef09-b8e0-48c0-ae05-d378b40f687d")
	)
	(wire
		(pts
			(xy 165.735 93.98) (xy 165.735 96.52)
		)
		(stroke
			(width 0)
			(type default)
		)
		(uuid "6275c592-b631-453c-a62a-306e419b2618")
	)
	(wire
		(pts
			(xy 173.355 109.22) (xy 189.865 109.22)
		)
		(stroke
			(width 0)
			(type default)
		)
		(uuid "6693706f-f109-4e7f-ae82-8d763a4ad511")
	)
	(wire
		(pts
			(xy 88.9 77.47) (xy 96.52 77.47)
		)
		(stroke
			(width 0)
			(type default)
		)
		(uuid "66efb5c2-09f7-4eb4-aa7d-3827d4632af3")
	)
	(wire
		(pts
			(xy 64.135 120.015) (xy 69.85 120.015)
		)
		(stroke
			(width 0)
			(type default)
		)
		(uuid "6a117d7b-e821-4936-942e-401f80a54cb7")
	)
	(wire
		(pts
			(xy 58.42 95.885) (xy 110.49 95.885)
		)
		(stroke
			(width 0)
			(type default)
		)
		(uuid "79246c30-0e8a-46a7-be03-f3b986b2ea6e")
	)
	(wire
		(pts
			(xy 135.89 77.47) (xy 152.4 77.47)
		)
		(stroke
			(width 0)
			(type default)
		)
		(uuid "7bfded2e-9158-4658-9f45-206a8c0aa652")
	)
	(wire
		(pts
			(xy 104.14 120.015) (xy 120.65 120.015)
		)
		(stroke
			(width 0)
			(type default)
		)
		(uuid "7d66ffae-ac4a-4ad8-83e0-543546c6c90c")
	)
	(wire
		(pts
			(xy 104.14 80.01) (xy 104.14 84.455)
		)
		(stroke
			(width 0)
			(type default)
		)
		(uuid "8250fe4e-176d-4211-a328-72c8bb7d369a")
	)
	(wire
		(pts
			(xy 133.35 95.885) (xy 133.35 120.015)
		)
		(stroke
			(width 0)
			(type default)
		)
		(uuid "828dd5e8-6c13-41e3-a62e-2fdd7a5d83db")
	)
	(wire
		(pts
			(xy 152.4 106.68) (xy 152.4 88.265)
		)
		(stroke
			(width 0)
			(type default)
		)
		(uuid "8701a9e1-46f1-40b3-b50a-2c1e6be68a33")
	)
	(wire
		(pts
			(xy 77.47 77.47) (xy 81.28 77.47)
		)
		(stroke
			(width 0)
			(type default)
		)
		(uuid "8a404e0c-a126-422f-840a-8c0ff013aac6")
	)
	(wire
		(pts
			(xy 155.575 80.645) (xy 155.575 93.98)
		)
		(stroke
			(width 0)
			(type default)
		)
		(uuid "8bbdbe90-1bd1-44c6-a335-a558de882379")
	)
	(wire
		(pts
			(xy 64.135 93.345) (xy 110.49 93.345)
		)
		(stroke
			(width 0)
			(type default)
		)
		(uuid "8be6a9f3-0049-4b23-9706-419172f59bd8")
	)
	(wire
		(pts
			(xy 173.355 104.14) (xy 182.88 104.14)
		)
		(stroke
			(width 0)
			(type default)
		)
		(uuid "8e97e54c-aeaf-41e3-84b1-799f9838e3dc")
	)
	(wire
		(pts
			(xy 130.81 93.345) (xy 133.35 93.345)
		)
		(stroke
			(width 0)
			(type default)
		)
		(uuid "90d936e1-6fed-456a-bcce-839008ffe4ea")
	)
	(wire
		(pts
			(xy 58.42 109.22) (xy 58.42 120.015)
		)
		(stroke
			(width 0)
			(type default)
		)
		(uuid "9f8222ba-a4b6-4c78-b350-c8fff651e940")
	)
	(wire
		(pts
			(xy 57.785 93.345) (xy 64.135 93.345)
		)
		(stroke
			(width 0)
			(type default)
		)
		(uuid "a0440901-4e62-4a77-be8d-9a1953a4540d")
	)
	(wire
		(pts
			(xy 158.115 104.14) (xy 155.575 104.14)
		)
		(stroke
			(width 0)
			(type default)
		)
		(uuid "a4a394c0-61b0-4284-9d91-f1c16f9dfb92")
	)
	(wire
		(pts
			(xy 118.11 77.47) (xy 118.11 80.645)
		)
		(stroke
			(width 0)
			(type default)
		)
		(uuid "a52bce71-6be3-4c64-b573-eb5a8b20ba87")
	)
	(wire
		(pts
			(xy 69.85 120.015) (xy 77.47 120.015)
		)
		(stroke
			(width 0)
			(type default)
		)
		(uuid "aa4d85e3-5e27-4980-a6c8-846f1f581460")
	)
	(wire
		(pts
			(xy 135.89 98.425) (xy 135.89 77.47)
		)
		(stroke
			(width 0)
			(type default)
		)
		(uuid "b05bdac9-70d4-4bd1-8b7f-e794d8d4e7e8")
	)
	(wire
		(pts
			(xy 133.35 93.345) (xy 133.35 95.885)
		)
		(stroke
			(width 0)
			(type default)
		)
		(uuid "b89ffb81-6f4f-493a-a8a2-5ba194a3669d")
	)
	(wire
		(pts
			(xy 86.36 77.47) (xy 88.9 77.47)
		)
		(stroke
			(width 0)
			(type default)
		)
		(uuid "c2790053-bf38-494d-8cc0-8a34eaecc381")
	)
	(wire
		(pts
			(xy 158.115 106.68) (xy 152.4 106.68)
		)
		(stroke
			(width 0)
			(type default)
		)
		(uuid "c849b8a2-7360-4437-a778-28e2c1b6ca30")
	)
	(wire
		(pts
			(xy 155.575 93.98) (xy 165.735 93.98)
		)
		(stroke
			(width 0)
			(type default)
		)
		(uuid "ca5a1963-1f96-4c3f-97db-f7c197b6db95")
	)
	(wire
		(pts
			(xy 155.575 104.14) (xy 155.575 93.98)
		)
		(stroke
			(width 0)
			(type default)
		)
		(uuid "cbe68835-86bf-49c0-ba1b-ab268344d9a3")
	)
	(wire
		(pts
			(xy 130.81 85.725) (xy 141.605 85.725)
		)
		(stroke
			(width 0)
			(type default)
		)
		(uuid "cd844515-1827-4bcf-ac7b-27239f691790")
	)
	(wire
		(pts
			(xy 69.85 77.47) (xy 69.85 104.14)
		)
		(stroke
			(width 0)
			(type default)
		)
		(uuid "d254086a-10c1-4f13-9c0c-534e17a0b306")
	)
	(wire
		(pts
			(xy 177.8 83.185) (xy 182.88 83.185)
		)
		(stroke
			(width 0)
			(type default)
		)
		(uuid "d3f558e7-3cfc-4d83-a3f8-d3a567136c4d")
	)
	(wire
		(pts
			(xy 133.35 120.015) (xy 165.735 120.015)
		)
		(stroke
			(width 0)
			(type default)
		)
		(uuid "d4a0f235-2af7-4973-afa8-8b26fc505943")
	)
	(wire
		(pts
			(xy 177.8 72.39) (xy 177.8 80.645)
		)
		(stroke
			(width 0)
			(type default)
		)
		(uuid "d6f0b6b9-88e6-47f4-88b0-75a6e2c54017")
	)
	(wire
		(pts
			(xy 170.18 71.755) (xy 170.18 72.39)
		)
		(stroke
			(width 0)
			(type default)
		)
		(uuid "dc3edce5-ec4f-4f9f-b573-f1bf242ac4fa")
	)
	(wire
		(pts
			(xy 96.52 77.47) (xy 96.52 84.455)
		)
		(stroke
			(width 0)
			(type default)
		)
		(uuid "dd463c0b-bf50-43c5-bd5c-4ed0e6eedf60")
	)
	(wire
		(pts
			(xy 57.785 95.885) (xy 58.42 95.885)
		)
		(stroke
			(width 0)
			(type default)
		)
		(uuid "de6ed5c3-f505-4f66-833b-a803c1453006")
	)
	(wire
		(pts
			(xy 96.52 120.015) (xy 104.14 120.015)
		)
		(stroke
			(width 0)
			(type default)
		)
		(uuid "e8a3fc64-bb47-43c4-9c2a-41d3b35d77a2")
	)
	(wire
		(pts
			(xy 58.42 95.885) (xy 58.42 104.14)
		)
		(stroke
			(width 0)
			(type default)
		)
		(uuid "eb42eabb-2e58-4234-b2b0-5558be7a48d2")
	)
	(wire
		(pts
			(xy 152.4 88.265) (xy 130.81 88.265)
		)
		(stroke
			(width 0)
			(type default)
		)
		(uuid "eb5bfb91-948d-4d6d-83a7-d75682740402")
	)
	(wire
		(pts
			(xy 152.4 84.455) (xy 152.4 88.265)
		)
		(stroke
			(width 0)
			(type default)
		)
		(uuid "f781fc03-3d5e-499d-8a43-0255008b901b")
	)
	(wire
		(pts
			(xy 88.9 77.47) (xy 88.9 84.455)
		)
		(stroke
			(width 0)
			(type default)
		)
		(uuid "fcda9321-8849-4fb1-bb26-9d320f1f7910")
	)
	(wire
		(pts
			(xy 88.9 120.015) (xy 96.52 120.015)
		)
		(stroke
			(width 0)
			(type default)
		)
		(uuid "ffb81bd5-d67d-41f9-ba23-fe70c4b90c78")
	)
	(label "VBUS_{F}"
		(at 104.14 77.47 0)
		(fields_autoplaced yes)
		(effects
			(font
				(size 0.889 0.889)
			)
			(justify left bottom)
		)
		(uuid "63c661f2-1caa-470d-abd8-b617ebce5a4d")
	)
	(hierarchical_label "USB GND"
		(shape input)
		(at 57.785 120.015 180)
		(fields_autoplaced yes)
		(effects
			(font
				(size 0.889 0.889)
			)
			(justify right)
		)
		(uuid "3bf3b390-fdd6-43a9-a4e5-46c1a609a3f5")
	)
	(hierarchical_label "USB D-"
		(shape input)
		(at 57.785 95.885 180)
		(fields_autoplaced yes)
		(effects
			(font
				(size 0.889 0.889)
			)
			(justify right)
		)
		(uuid "48999a83-227f-491f-a0bc-f08705d2dee0")
	)
	(hierarchical_label "SerialRX"
		(shape input)
		(at 189.865 109.22 0)
		(fields_autoplaced yes)
		(effects
			(font
				(size 0.889 0.889)
			)
			(justify left)
		)
		(uuid "6ec812b6-2978-4315-9164-cf0d9a632334")
	)
	(hierarchical_label "SerialTX"
		(shape output)
		(at 189.865 83.185 0)
		(fields_autoplaced yes)
		(effects
			(font
				(size 0.889 0.889)
			)
			(justify left)
		)
		(uuid "88ebbd88-3a0d-4fb4-b911-4a5e316b40b7")
	)
	(hierarchical_label "USB VBUS"
		(shape input)
		(at 57.785 77.47 180)
		(fields_autoplaced yes)
		(effects
			(font
				(size 0.889 0.889)
			)
			(justify right)
		)
		(uuid "bc4000a3-7160-46f9-bb23-34fe388003ec")
	)
	(hierarchical_label "USB D+"
		(shape input)
		(at 57.785 93.345 180)
		(fields_autoplaced yes)
		(effects
			(font
				(size 0.889 0.889)
			)
			(justify right)
		)
		(uuid "e72068a3-9bc9-4527-b25b-12b65e557df0")
	)
	(symbol
		(lib_id "xDevice:R")
		(at 182.88 100.965 0)
		(unit 1)
		(exclude_from_sim no)
		(in_bom yes)
		(on_board yes)
		(dnp no)
		(uuid "04d7db29-e640-4fb9-986c-090a756fa71f")
		(property "Reference" "R80"
			(at 184.15 100.33 0)
			(effects
				(font
					(size 0.889 0.889)
				)
				(justify left)
			)
		)
		(property "Value" "470"
			(at 184.15 101.6 0)
			(effects
				(font
					(size 0.889 0.889)
				)
				(justify left)
			)
		)
		(property "Footprint" "Resistor_SMD:R_0603_1608Metric"
			(at 183.896 101.219 90)
			(effects
				(font
					(size 1.27 1.27)
				)
				(hide yes)
			)
		)
		(property "Datasheet" "~"
			(at 182.88 100.965 0)
			(effects
				(font
					(size 1.27 1.27)
				)
				(hide yes)
			)
		)
		(property "Description" "Res 470ohm 1% [0603]"
			(at 182.88 100.965 0)
			(effects
				(font
					(size 1.27 1.27)
				)
				(hide yes)
			)
		)
		(property "JLC" ""
			(at 182.88 100.965 0)
			(effects
				(font
					(size 1.27 1.27)
				)
				(hide yes)
			)
		)
		(property "BOM" "UNTR:Res-470-0603"
			(at 182.88 100.965 0)
			(effects
				(font
					(size 1.27 1.27)
				)
				(hide yes)
			)
		)
		(pin "1"
			(uuid "a3585951-1d88-427a-bcf1-ecf7a7a63809")
		)
		(pin "2"
			(uuid "9f3cce93-a835-420a-8df1-0386b1022362")
		)
		(instances
			(project "7kcalibrator"
				(path "/e44db67c-7d9a-468c-83e4-b15a3f210f71/eff31b51-1614-4fcd-a3ab-7192996a1b7e"
					(reference "R80")
					(unit 1)
				)
			)
		)
	)
	(symbol
		(lib_id "xDevice:FerriteBead")
		(at 83.82 77.47 90)
		(unit 1)
		(exclude_from_sim no)
		(in_bom yes)
		(on_board yes)
		(dnp no)
		(uuid "1e0b7cf1-d2e9-4fe8-9aba-a6b34bb9b6c0")
		(property "Reference" "L1"
			(at 83.82 74.93 90)
			(effects
				(font
					(size 0.889 0.889)
				)
			)
		)
		(property "Value" "120"
			(at 85.09 75.565 0)
			(effects
				(font
					(size 1.27 1.27)
				)
				(justify left)
				(hide yes)
			)
		)
		(property "Footprint" "Inductor_SMD:L_0603_1608Metric"
			(at 83.82 79.248 90)
			(effects
				(font
					(size 1.27 1.27)
				)
				(hide yes)
			)
		)
		(property "Datasheet" "~"
			(at 83.82 77.47 0)
			(effects
				(font
					(size 1.27 1.27)
				)
				(hide yes)
			)
		)
		(property "Description" "Bead 120ohm/100MHz [0603]"
			(at 83.82 77.47 0)
			(effects
				(font
					(size 1.27 1.27)
				)
				(hide yes)
			)
		)
		(property "BOM" "Bead-120-0603"
			(at 83.82 77.47 90)
			(effects
				(font
					(size 0.889 0.889)
				)
				(hide yes)
			)
		)
		(pin "2"
			(uuid "77e0a93f-3d25-4869-bbd2-780eeeab2665")
		)
		(pin "1"
			(uuid "d8856b45-1a4d-4905-8681-f5f983996220")
		)
		(instances
			(project "7kcalibrator"
				(path "/e44db67c-7d9a-468c-83e4-b15a3f210f71/eff31b51-1614-4fcd-a3ab-7192996a1b7e"
					(reference "L1")
					(unit 1)
				)
			)
		)
	)
	(symbol
		(lib_id "xDevice:C")
		(at 77.47 86.995 0)
		(unit 1)
		(exclude_from_sim no)
		(in_bom yes)
		(on_board yes)
		(dnp no)
		(uuid "1e383507-4315-4731-a9d5-77b8a58e1f6c")
		(property "Reference" "C3"
			(at 81.28 86.36 0)
			(effects
				(font
					(size 0.889 0.889)
				)
			)
		)
		(property "Value" "100n"
			(at 81.28 87.63 0)
			(effects
				(font
					(size 0.889 0.889)
				)
			)
		)
		(property "Footprint" "xDevice:C_0402_1005Metric_Pad0.74x0.62mm_HandSolder"
			(at 77.47 86.995 0)
			(effects
				(font
					(size 1.27 1.27)
				)
				(hide yes)
			)
		)
		(property "Datasheet" "~"
			(at 77.47 86.995 0)
			(effects
				(font
					(size 1.27 1.27)
				)
				(hide yes)
			)
		)
		(property "Description" "Cap MLCC 100nF 25V X5R [0402]"
			(at 77.47 86.995 0)
			(effects
				(font
					(size 1.27 1.27)
				)
				(hide yes)
			)
		)
		(property "JLC" ""
			(at 77.47 86.995 0)
			(effects
				(font
					(size 1.27 1.27)
				)
				(hide yes)
			)
		)
		(property "BOM" "CAP-100N-25V-0402"
			(at 77.47 86.995 0)
			(effects
				(font
					(size 1.27 1.27)
				)
				(hide yes)
			)
		)
		(pin "1"
			(uuid "aa28f040-c3c6-4a13-8afc-5c150b8e8f98")
		)
		(pin "2"
			(uuid "b56a33f1-168a-459e-922e-d770492ece3f")
		)
		(instances
			(project "7kcalibrator"
				(path "/e44db67c-7d9a-468c-83e4-b15a3f210f71/eff31b51-1614-4fcd-a3ab-7192996a1b7e"
					(reference "C3")
					(unit 1)
				)
			)
		)
	)
	(symbol
		(lib_id "xPower:GND")
		(at 170.18 93.345 0)
		(unit 1)
		(exclude_from_sim no)
		(in_bom yes)
		(on_board yes)
		(dnp no)
		(uuid "3410ad9e-c168-4272-8c85-a917a0f30d09")
		(property "Reference" "#PWR0223"
			(at 170.18 98.425 0)
			(effects
				(font
					(size 1.27 1.27)
				)
				(hide yes)
			)
		)
		(property "Value" "GND"
			(at 170.18 96.647 0)
			(effects
				(font
					(size 1.27 1.27)
				)
				(hide yes)
			)
		)
		(property "Footprint" ""
			(at 170.18 93.853 0)
			(effects
				(font
					(size 1.27 1.27)
				)
				(hide yes)
			)
		)
		(property "Datasheet" ""
			(at 170.18 93.853 0)
			(effects
				(font
					(size 1.27 1.27)
				)
				(hide yes)
			)
		)
		(property "Description" "Ground symbol, triangular"
			(at 170.18 99.695 0)
			(effects
				(font
					(size 1.27 1.27)
				)
				(hide yes)
			)
		)
		(pin "1"
			(uuid "99c76469-69f8-41d3-839d-f473ef82ec98")
		)
		(instances
			(project ""
				(path "/e44db67c-7d9a-468c-83e4-b15a3f210f71/eff31b51-1614-4fcd-a3ab-7192996a1b7e"
					(reference "#PWR0223")
					(unit 1)
				)
			)
		)
	)
	(symbol
		(lib_id "Interface_USB:CH340C")
		(at 120.65 95.885 0)
		(unit 1)
		(exclude_from_sim no)
		(in_bom yes)
		(on_board yes)
		(dnp no)
		(uuid "34f23d6b-eedb-4bb5-ad00-49f6663cc8a6")
		(property "Reference" "U2"
			(at 118.11 99.06 0)
			(effects
				(font
					(size 1.27 1.27)
				)
			)
		)
		(property "Value" "CH340C"
			(at 118.11 101.6 0)
			(effects
				(font
					(size 1.27 1.27)
				)
			)
		)
		(property "Footprint" "Package_SO:SOIC-16_3.9x9.9mm_P1.27mm"
			(at 102.108 65.659 0)
			(effects
				(font
					(size 1.27 1.27)
				)
				(justify left)
				(hide yes)
			)
		)
		(property "Datasheet" "https://datasheet.lcsc.com/szlcsc/Jiangsu-Qin-Heng-CH340C_C84681.pdf"
			(at 114.046 62.611 0)
			(effects
				(font
					(size 1.27 1.27)
				)
				(hide yes)
			)
		)
		(property "Description" "USB-UART [SOIC-16]"
			(at 119.126 59.817 0)
			(effects
				(font
					(size 1.27 1.27)
				)
				(hide yes)
			)
		)
		(property "BOM" "CH340C"
			(at 120.65 95.885 0)
			(effects
				(font
					(size 1.27 1.27)
				)
				(hide yes)
			)
		)
		(pin "11"
			(uuid "1d59af1b-c3a8-4179-965a-3e783b16da7e")
		)
		(pin "10"
			(uuid "782eb61a-fedf-4778-88a7-6c96c2808f46")
		)
		(pin "1"
			(uuid "33880c24-6d41-4edf-937b-efc6bc21e3a0")
		)
		(pin "12"
			(uuid "138ea39a-67a9-4455-a3e4-5c8a137e44d9")
		)
		(pin "9"
			(uuid "fd1467c2-d17e-467a-88c7-81eb4327c79e")
		)
		(pin "7"
			(uuid "d161d64f-772b-4618-9200-dc752dd56938")
		)
		(pin "13"
			(uuid "82fa8612-6afe-499c-958e-f9f2187415d2")
		)
		(pin "2"
			(uuid "dd89dc5a-addc-46c6-ac82-9690e5e207c2")
		)
		(pin "16"
			(uuid "feb19ecb-f1d3-48b4-b3f1-a17f1e3f9b2b")
		)
		(pin "4"
			(uuid "19bd51e1-fb17-421b-8b7a-e6d85f5312f3")
		)
		(pin "3"
			(uuid "31d614fa-c7e4-4a0d-9316-e8cec16427ec")
		)
		(pin "8"
			(uuid "554cb677-6b70-4b4c-bf9b-218c733f05ed")
		)
		(pin "5"
			(uuid "c0e176d6-7cd5-49a1-b7ad-586576cff5c8")
		)
		(pin "6"
			(uuid "64200381-6300-433c-9130-f798d41c2c72")
		)
		(pin "15"
			(uuid "9e1bc256-4cd0-4bc2-b19c-85715bb88a99")
		)
		(pin "14"
			(uuid "d2e75829-2fcd-4c01-88a3-338b78cc7b46")
		)
		(instances
			(project ""
				(path "/e44db67c-7d9a-468c-83e4-b15a3f210f71/eff31b51-1614-4fcd-a3ab-7192996a1b7e"
					(reference "U2")
					(unit 1)
				)
			)
		)
	)
	(symbol
		(lib_id "xDevice:R")
		(at 182.88 79.375 0)
		(unit 1)
		(exclude_from_sim no)
		(in_bom yes)
		(on_board yes)
		(dnp no)
		(uuid "4d14f1b4-1d06-4b41-9ca9-a229549bf944")
		(property "Reference" "R74"
			(at 186.055 78.74 0)
			(effects
				(font
					(size 0.889 0.889)
				)
			)
		)
		(property "Value" "1k"
			(at 186.055 80.01 0)
			(effects
				(font
					(size 0.889 0.889)
				)
			)
		)
		(property "Footprint" "xDevice:R_0402_1005Metric_Pad0.72x0.64mm_HandSolder"
			(at 183.896 79.629 90)
			(effects
				(font
					(size 1.27 1.27)
				)
				(hide yes)
			)
		)
		(property "Datasheet" "~"
			(at 182.88 79.375 0)
			(effects
				(font
					(size 1.27 1.27)
				)
				(hide yes)
			)
		)
		(property "Description" "Res 1k 1% [0402]"
			(at 182.88 79.375 0)
			(effects
				(font
					(size 1.27 1.27)
				)
				(hide yes)
			)
		)
		(property "JLC" ""
			(at 182.88 79.375 0)
			(effects
				(font
					(size 1.27 1.27)
				)
				(hide yes)
			)
		)
		(property "BOM" "UNTR:Res-1k-0402"
			(at 182.88 79.375 0)
			(effects
				(font
					(size 1.27 1.27)
				)
				(hide yes)
			)
		)
		(pin "1"
			(uuid "55c4166d-52b9-4cbc-8a2d-8e34a6055e5d")
		)
		(pin "2"
			(uuid "951f5e80-3143-48ae-8d87-d7b5d55c1e65")
		)
		(instances
			(project "7kcalibrator"
				(path "/e44db67c-7d9a-468c-83e4-b15a3f210f71/eff31b51-1614-4fcd-a3ab-7192996a1b7e"
					(reference "R74")
					(unit 1)
				)
			)
		)
	)
	(symbol
		(lib_id "Isolator:6N137")
		(at 165.735 106.68 0)
		(mirror y)
		(unit 1)
		(exclude_from_sim no)
		(in_bom yes)
		(on_board yes)
		(dnp no)
		(uuid "51e1ec16-c87f-43a8-a397-13243ecb32b5")
		(property "Reference" "U6"
			(at 154.94 108.585 0)
			(effects
				(font
					(size 1.27 1.27)
				)
			)
		)
		(property "Value" "6N137S"
			(at 154.94 110.49 0)
			(effects
				(font
					(size 1.27 1.27)
				)
			)
		)
		(property "Footprint" "Package_SO:SOP-8_6.605x9.655mm_P2.54mm"
			(at 165.735 119.38 0)
			(effects
				(font
					(size 1.27 1.27)
				)
				(hide yes)
			)
		)
		(property "Datasheet" "https://docs.broadcom.com/docs/AV02-0940EN"
			(at 187.325 92.71 0)
			(effects
				(font
					(size 1.27 1.27)
				)
				(hide yes)
			)
		)
		(property "Description" "Optocoupler Logic 75ns/75ns 5kV [SMDIP-8]"
			(at 165.735 106.68 0)
			(effects
				(font
					(size 1.27 1.27)
				)
				(hide yes)
			)
		)
		(property "BOM" "6N137-SMT"
			(at 165.735 106.68 0)
			(effects
				(font
					(size 0.889 0.889)
				)
				(hide yes)
			)
		)
		(pin "7"
			(uuid "cf88b0d6-ee08-42e0-a6f6-4e5fb860f4fa")
		)
		(pin "8"
			(uuid "f50eeddf-7fde-4173-a35c-3a715b889f4f")
		)
		(pin "2"
			(uuid "2255b596-3a96-4093-85ac-c9a0eb136468")
		)
		(pin "6"
			(uuid "8850ffcd-9cfc-46f9-8054-f08156af11dd")
		)
		(pin "1"
			(uuid "e00fb0e6-db33-4935-bfe4-26e52be844e7")
		)
		(pin "4"
			(uuid "e552a4c7-cc33-4053-bd07-56487fa42085")
		)
		(pin "5"
			(uuid "fbf02c46-3dc6-4bcc-9619-8f984ba3edc7")
		)
		(pin "3"
			(uuid "041b4cf7-60aa-4f3f-91a0-16c968b3eeda")
		)
		(instances
			(project "7kcalibrator"
				(path "/e44db67c-7d9a-468c-83e4-b15a3f210f71/eff31b51-1614-4fcd-a3ab-7192996a1b7e"
					(reference "U6")
					(unit 1)
				)
			)
		)
	)
	(symbol
		(lib_id "xDevice:C")
		(at 96.52 86.995 0)
		(unit 1)
		(exclude_from_sim no)
		(in_bom yes)
		(on_board yes)
		(dnp no)
		(uuid "6b456509-5e93-4174-bc50-8fbd39c6cfa2")
		(property "Reference" "C13"
			(at 100.33 86.36 0)
			(effects
				(font
					(size 0.889 0.889)
				)
			)
		)
		(property "Value" "100n"
			(at 100.33 87.63 0)
			(effects
				(font
					(size 0.889 0.889)
				)
			)
		)
		(property "Footprint" "xDevice:C_0402_1005Metric_Pad0.74x0.62mm_HandSolder"
			(at 96.52 86.995 0)
			(effects
				(font
					(size 1.27 1.27)
				)
				(hide yes)
			)
		)
		(property "Datasheet" "~"
			(at 96.52 86.995 0)
			(effects
				(font
					(size 1.27 1.27)
				)
				(hide yes)
			)
		)
		(property "Description" "Cap MLCC 100nF 25V X5R [0402]"
			(at 96.52 86.995 0)
			(effects
				(font
					(size 1.27 1.27)
				)
				(hide yes)
			)
		)
		(property "JLC" ""
			(at 96.52 86.995 0)
			(effects
				(font
					(size 1.27 1.27)
				)
				(hide yes)
			)
		)
		(property "BOM" "CAP-100N-25V-0402"
			(at 96.52 86.995 0)
			(effects
				(font
					(size 1.27 1.27)
				)
				(hide yes)
			)
		)
		(pin "1"
			(uuid "7e69ce37-162f-4f16-9b15-d2a6b8f71fb1")
		)
		(pin "2"
			(uuid "4f53bd84-1927-4b67-95b4-c4521cfcab02")
		)
		(instances
			(project "7kcalibrator"
				(path "/e44db67c-7d9a-468c-83e4-b15a3f210f71/eff31b51-1614-4fcd-a3ab-7192996a1b7e"
					(reference "C13")
					(unit 1)
				)
			)
		)
	)
	(symbol
		(lib_id "Isolator:6N137")
		(at 170.18 83.185 0)
		(unit 1)
		(exclude_from_sim no)
		(in_bom yes)
		(on_board yes)
		(dnp no)
		(uuid "7c43c6c2-fc3e-4144-b6a4-235146bd0335")
		(property "Reference" "U5"
			(at 177.8 67.945 0)
			(effects
				(font
					(size 1.27 1.27)
				)
			)
		)
		(property "Value" "6N137S"
			(at 177.8 69.85 0)
			(effects
				(font
					(size 1.27 1.27)
				)
			)
		)
		(property "Footprint" "Package_SO:SOP-8_6.605x9.655mm_P2.54mm"
			(at 170.18 95.885 0)
			(effects
				(font
					(size 1.27 1.27)
				)
				(hide yes)
			)
		)
		(property "Datasheet" "https://docs.broadcom.com/docs/AV02-0940EN"
			(at 148.59 69.215 0)
			(effects
				(font
					(size 1.27 1.27)
				)
				(hide yes)
			)
		)
		(property "Description" "Optocoupler Logic 75ns/75ns 5kV [SMDIP-8]"
			(at 170.18 83.185 0)
			(effects
				(font
					(size 1.27 1.27)
				)
				(hide yes)
			)
		)
		(property "BOM" "6N137-SMT"
			(at 170.18 83.185 0)
			(effects
				(font
					(size 0.889 0.889)
				)
				(hide yes)
			)
		)
		(pin "7"
			(uuid "98ae9cfc-7935-439f-8da0-d471db668269")
		)
		(pin "8"
			(uuid "e18b09d7-06be-4987-ba37-a5ee591d9b85")
		)
		(pin "2"
			(uuid "e2fe859e-fe3f-4f7d-a267-6428a5550420")
		)
		(pin "6"
			(uuid "be5c108f-99be-4c0d-9250-1bdcb271a8d9")
		)
		(pin "1"
			(uuid "dc0ba8a0-4163-4e6b-afd0-a060912eda78")
		)
		(pin "4"
			(uuid "32fef863-66c7-46e9-9d4b-5ce848a36b0b")
		)
		(pin "5"
			(uuid "65a2b0a7-f4fd-4aa3-b91c-ecea29a4a55e")
		)
		(pin "3"
			(uuid "c86afb52-0bb6-4f56-8273-148a329406de")
		)
		(instances
			(project ""
				(path "/e44db67c-7d9a-468c-83e4-b15a3f210f71/eff31b51-1614-4fcd-a3ab-7192996a1b7e"
					(reference "U5")
					(unit 1)
				)
			)
		)
	)
	(symbol
		(lib_id "xDevice:R")
		(at 152.4 81.915 0)
		(mirror x)
		(unit 1)
		(exclude_from_sim no)
		(in_bom yes)
		(on_board yes)
		(dnp no)
		(uuid "7fd6c165-1d46-40f2-bac2-e933b0caaeb6")
		(property "Reference" "R55"
			(at 149.86 80.01 0)
			(effects
				(font
					(size 0.889 0.889)
				)
			)
		)
		(property "Value" "1k"
			(at 149.86 81.28 0)
			(effects
				(font
					(size 0.889 0.889)
				)
			)
		)
		(property "Footprint" "xDevice:R_0402_1005Metric_Pad0.72x0.64mm_HandSolder"
			(at 153.416 81.661 90)
			(effects
				(font
					(size 1.27 1.27)
				)
				(hide yes)
			)
		)
		(property "Datasheet" "~"
			(at 152.4 81.915 0)
			(effects
				(font
					(size 1.27 1.27)
				)
				(hide yes)
			)
		)
		(property "Description" "Res 1k 1% [0402]"
			(at 152.4 81.915 0)
			(effects
				(font
					(size 1.27 1.27)
				)
				(hide yes)
			)
		)
		(property "JLC" ""
			(at 152.4 81.915 0)
			(effects
				(font
					(size 1.27 1.27)
				)
				(hide yes)
			)
		)
		(property "BOM" "UNTR:Res-1k-0402"
			(at 152.4 81.915 0)
			(effects
				(font
					(size 1.27 1.27)
				)
				(hide yes)
			)
		)
		(pin "1"
			(uuid "52e2dcfb-d7ca-475a-84b0-5b5f7b988505")
		)
		(pin "2"
			(uuid "203758d2-08e1-48cc-8920-2000e6e0b350")
		)
		(instances
			(project "7kcalibrator"
				(path "/e44db67c-7d9a-468c-83e4-b15a3f210f71/eff31b51-1614-4fcd-a3ab-7192996a1b7e"
					(reference "R55")
					(unit 1)
				)
			)
		)
	)
	(symbol
		(lib_id "xDevice:C")
		(at 88.9 86.995 0)
		(unit 1)
		(exclude_from_sim no)
		(in_bom yes)
		(on_board yes)
		(dnp no)
		(uuid "88a2c6a0-d4a3-4a22-90f2-78bf404edaf3")
		(property "Reference" "C2"
			(at 92.075 86.36 0)
			(effects
				(font
					(size 0.889 0.889)
				)
			)
		)
		(property "Value" "10µ"
			(at 92.075 87.63 0)
			(effects
				(font
					(size 0.889 0.889)
				)
			)
		)
		(property "Footprint" "Capacitor_SMD:C_0805_2012Metric"
			(at 88.9 86.995 0)
			(effects
				(font
					(size 1.27 1.27)
				)
				(hide yes)
			)
		)
		(property "Datasheet" ""
			(at 88.9 86.995 0)
			(effects
				(font
					(size 1.27 1.27)
				)
				(hide yes)
			)
		)
		(property "Description" "Cap MLCC 10µF 10V [0805]"
			(at 88.9 91.44 0)
			(effects
				(font
					(size 1.27 1.27)
				)
				(hide yes)
			)
		)
		(property "BOM" "Cap-10u-0805"
			(at 88.9 86.995 0)
			(effects
				(font
					(size 1.27 1.27)
				)
				(hide yes)
			)
		)
		(pin "2"
			(uuid "7fe75bcd-d576-41cb-b933-c1996754171b")
		)
		(pin "1"
			(uuid "45853ecc-a54d-4e03-beda-1b40d928a8ef")
		)
		(instances
			(project "7kcalibrator"
				(path "/e44db67c-7d9a-468c-83e4-b15a3f210f71/eff31b51-1614-4fcd-a3ab-7192996a1b7e"
					(reference "C2")
					(unit 1)
				)
			)
		)
	)
	(symbol
		(lib_id "xDevice:D_Zener")
		(at 69.85 106.68 0)
		(unit 1)
		(exclude_from_sim no)
		(in_bom yes)
		(on_board yes)
		(dnp no)
		(uuid "9207243d-8572-4bd3-9fc5-3eb066d716d2")
		(property "Reference" "DZ1"
			(at 72.39 106.045 0)
			(effects
				(font
					(size 0.889 0.889)
				)
			)
		)
		(property "Value" "5.0V"
			(at 72.39 107.315 0)
			(effects
				(font
					(size 0.889 0.889)
				)
			)
		)
		(property "Footprint" "xDevice:D_SOD-523_HandSoldering"
			(at 69.85 106.68 90)
			(effects
				(font
					(size 1.27 1.27)
				)
				(hide yes)
			)
		)
		(property "Datasheet" ""
			(at 69.85 106.68 90)
			(effects
				(font
					(size 1.27 1.27)
				)
				(hide yes)
			)
		)
		(property "Description" "TVS 5V [SOD-523]"
			(at 69.85 110.871 0)
			(effects
				(font
					(size 1.27 1.27)
				)
				(hide yes)
			)
		)
		(property "BOM" "TVS-5V-SOD523"
			(at 69.85 106.68 0)
			(effects
				(font
					(size 0.889 0.889)
				)
				(hide yes)
			)
		)
		(pin "2"
			(uuid "11c1d267-150e-45fe-b1b0-1f2eff25056d")
		)
		(pin "1"
			(uuid "0caf14a2-cfad-42e1-be87-bc6ee50b1927")
		)
		(instances
			(project "7kcalibrator"
				(path "/e44db67c-7d9a-468c-83e4-b15a3f210f71/eff31b51-1614-4fcd-a3ab-7192996a1b7e"
					(reference "DZ1")
					(unit 1)
				)
			)
		)
	)
	(symbol
		(lib_id "xDevice:D_Zener")
		(at 58.42 106.68 0)
		(unit 1)
		(exclude_from_sim no)
		(in_bom yes)
		(on_board yes)
		(dnp no)
		(uuid "a49276df-831d-40b7-897c-da43f746c009")
		(property "Reference" "DZ2"
			(at 60.96 106.045 0)
			(effects
				(font
					(size 0.889 0.889)
				)
			)
		)
		(property "Value" "3.3V"
			(at 60.96 107.315 0)
			(effects
				(font
					(size 0.889 0.889)
				)
			)
		)
		(property "Footprint" "xDevice:D_SOD-523_HandSoldering"
			(at 58.42 106.68 90)
			(effects
				(font
					(size 1.27 1.27)
				)
				(hide yes)
			)
		)
		(property "Datasheet" ""
			(at 58.42 106.68 90)
			(effects
				(font
					(size 1.27 1.27)
				)
				(hide yes)
			)
		)
		(property "Description" "TVS 3.3V [SOD-523]"
			(at 58.42 110.871 0)
			(effects
				(font
					(size 1.27 1.27)
				)
				(hide yes)
			)
		)
		(property "BOM" "TVS-3V3-SOD523"
			(at 58.42 106.68 0)
			(effects
				(font
					(size 0.889 0.889)
				)
				(hide yes)
			)
		)
		(pin "2"
			(uuid "4de7231f-d8f8-4c5e-aaae-904383438ce3")
		)
		(pin "1"
			(uuid "7bc0ca3e-b6fa-4e79-90db-b9fe519dd42e")
		)
		(instances
			(project ""
				(path "/e44db67c-7d9a-468c-83e4-b15a3f210f71/eff31b51-1614-4fcd-a3ab-7192996a1b7e"
					(reference "DZ2")
					(unit 1)
				)
			)
		)
	)
	(symbol
		(lib_id "xDevice:R")
		(at 144.145 85.725 90)
		(mirror x)
		(unit 1)
		(exclude_from_sim no)
		(in_bom yes)
		(on_board yes)
		(dnp no)
		(uuid "b16a6bad-03ce-4566-8f61-915854d13b52")
		(property "Reference" "R54"
			(at 144.145 82.55 90)
			(effects
				(font
					(size 0.889 0.889)
				)
			)
		)
		(property "Value" "470"
			(at 144.145 83.82 90)
			(effects
				(font
					(size 0.889 0.889)
				)
			)
		)
		(property "Footprint" "Resistor_SMD:R_0603_1608Metric"
			(at 144.399 86.741 90)
			(effects
				(font
					(size 1.27 1.27)
				)
				(hide yes)
			)
		)
		(property "Datasheet" "~"
			(at 144.145 85.725 0)
			(effects
				(font
					(size 1.27 1.27)
				)
				(hide yes)
			)
		)
		(property "Description" "Res 470ohm 1% [0603]"
			(at 144.145 85.725 0)
			(effects
				(font
					(size 1.27 1.27)
				)
				(hide yes)
			)
		)
		(property "BOM" "UNTR:Res-470-0603"
			(at 144.145 85.725 0)
			(effects
				(font
					(size 1.27 1.27)
				)
				(hide yes)
			)
		)
		(pin "1"
			(uuid "40c807cf-ce3c-40a4-81ef-76c97b10fab7")
		)
		(pin "2"
			(uuid "89e79603-34bc-46f0-b2ef-b7104e106311")
		)
		(instances
			(project "7kcalibrator"
				(path "/e44db67c-7d9a-468c-83e4-b15a3f210f71/eff31b51-1614-4fcd-a3ab-7192996a1b7e"
					(reference "R54")
					(unit 1)
				)
			)
		)
	)
	(symbol
		(lib_id "xPower:+xV")
		(at 182.88 98.425 0)
		(unit 1)
		(exclude_from_sim no)
		(in_bom yes)
		(on_board yes)
		(dnp no)
		(uuid "b1e257d0-73b7-4b9a-af7f-45665e252377")
		(property "Reference" "#PWR0225"
			(at 182.88 102.235 0)
			(effects
				(font
					(size 1.27 1.27)
				)
				(hide yes)
			)
		)
		(property "Value" "+5V"
			(at 182.88 96.647 0)
			(effects
				(font
					(size 0.889 0.889)
				)
			)
		)
		(property "Footprint" ""
			(at 182.88 98.425 0)
			(effects
				(font
					(size 1.27 1.27)
				)
				(hide yes)
			)
		)
		(property "Datasheet" ""
			(at 182.88 98.425 0)
			(effects
				(font
					(size 1.27 1.27)
				)
				(hide yes)
			)
		)
		(property "Description" "Generic positive power symbol"
			(at 182.88 98.425 0)
			(effects
				(font
					(size 1.27 1.27)
				)
				(hide yes)
			)
		)
		(pin "1"
			(uuid "0c4761a2-1c9d-4887-9ca6-ad185b69d239")
		)
		(instances
			(project "7kcalibrator"
				(path "/e44db67c-7d9a-468c-83e4-b15a3f210f71/eff31b51-1614-4fcd-a3ab-7192996a1b7e"
					(reference "#PWR0225")
					(unit 1)
				)
			)
		)
	)
	(symbol
		(lib_id "xDevice:D_Zener")
		(at 64.135 106.68 0)
		(unit 1)
		(exclude_from_sim no)
		(in_bom yes)
		(on_board yes)
		(dnp no)
		(uuid "b2ff6d60-e7ba-4a31-901e-a6a8e7bdbf5b")
		(property "Reference" "DZ3"
			(at 66.675 106.045 0)
			(effects
				(font
					(size 0.889 0.889)
				)
			)
		)
		(property "Value" "3.3V"
			(at 66.675 107.315 0)
			(effects
				(font
					(size 0.889 0.889)
				)
			)
		)
		(property "Footprint" "xDevice:D_SOD-523_HandSoldering"
			(at 64.135 106.68 90)
			(effects
				(font
					(size 1.27 1.27)
				)
				(hide yes)
			)
		)
		(property "Datasheet" ""
			(at 64.135 106.68 90)
			(effects
				(font
					(size 1.27 1.27)
				)
				(hide yes)
			)
		)
		(property "Description" "TVS 3.3V [SOD-523]"
			(at 64.135 110.871 0)
			(effects
				(font
					(size 1.27 1.27)
				)
				(hide yes)
			)
		)
		(property "BOM" "TVS-3V3-SOD523"
			(at 64.135 106.68 0)
			(effects
				(font
					(size 0.889 0.889)
				)
				(hide yes)
			)
		)
		(pin "2"
			(uuid "3871838e-3b09-4b2d-a68b-146329102095")
		)
		(pin "1"
			(uuid "6c1e3145-bbdd-401d-8f89-0739fc5caa14")
		)
		(instances
			(project "7kcalibrator"
				(path "/e44db67c-7d9a-468c-83e4-b15a3f210f71/eff31b51-1614-4fcd-a3ab-7192996a1b7e"
					(reference "DZ3")
					(unit 1)
				)
			)
		)
	)
	(symbol
		(lib_id "xPower:GND")
		(at 193.675 76.2 0)
		(unit 1)
		(exclude_from_sim no)
		(in_bom yes)
		(on_board yes)
		(dnp no)
		(uuid "b6e284df-b38c-497d-85b0-0890d94aed52")
		(property "Reference" "#PWR0227"
			(at 193.675 81.28 0)
			(effects
				(font
					(size 1.27 1.27)
				)
				(hide yes)
			)
		)
		(property "Value" "GND"
			(at 193.675 79.502 0)
			(effects
				(font
					(size 1.27 1.27)
				)
				(hide yes)
			)
		)
		(property "Footprint" ""
			(at 193.675 76.708 0)
			(effects
				(font
					(size 1.27 1.27)
				)
				(hide yes)
			)
		)
		(property "Datasheet" ""
			(at 193.675 76.708 0)
			(effects
				(font
					(size 1.27 1.27)
				)
				(hide yes)
			)
		)
		(property "Description" "Ground symbol, triangular"
			(at 193.675 82.55 0)
			(effects
				(font
					(size 1.27 1.27)
				)
				(hide yes)
			)
		)
		(pin "1"
			(uuid "b89581be-d17f-4252-ad2f-2bde992e446a")
		)
		(instances
			(project "7kcalibrator"
				(path "/e44db67c-7d9a-468c-83e4-b15a3f210f71/eff31b51-1614-4fcd-a3ab-7192996a1b7e"
					(reference "#PWR0227")
					(unit 1)
				)
			)
		)
	)
	(symbol
		(lib_id "xPower:+xV")
		(at 182.88 76.835 0)
		(unit 1)
		(exclude_from_sim no)
		(in_bom yes)
		(on_board yes)
		(dnp no)
		(uuid "bdd161c6-f229-47ed-95ba-97d7579fc98c")
		(property "Reference" "#PWR0224"
			(at 182.88 80.645 0)
			(effects
				(font
					(size 1.27 1.27)
				)
				(hide yes)
			)
		)
		(property "Value" "+5V"
			(at 182.88 75.057 0)
			(effects
				(font
					(size 0.889 0.889)
				)
			)
		)
		(property "Footprint" ""
			(at 182.88 76.835 0)
			(effects
				(font
					(size 1.27 1.27)
				)
				(hide yes)
			)
		)
		(property "Datasheet" ""
			(at 182.88 76.835 0)
			(effects
				(font
					(size 1.27 1.27)
				)
				(hide yes)
			)
		)
		(property "Description" "Generic positive power symbol"
			(at 182.88 76.835 0)
			(effects
				(font
					(size 1.27 1.27)
				)
				(hide yes)
			)
		)
		(pin "1"
			(uuid "80a845a8-2aa3-4b47-8b67-c79efa24fe26")
		)
		(instances
			(project ""
				(path "/e44db67c-7d9a-468c-83e4-b15a3f210f71/eff31b51-1614-4fcd-a3ab-7192996a1b7e"
					(reference "#PWR0224")
					(unit 1)
				)
			)
		)
	)
	(symbol
		(lib_id "xPower:+xV")
		(at 170.18 71.755 0)
		(unit 1)
		(exclude_from_sim no)
		(in_bom yes)
		(on_board yes)
		(dnp no)
		(uuid "deb1f431-977c-480f-b0ce-0dcba431f066")
		(property "Reference" "#PWR0222"
			(at 170.18 75.565 0)
			(effects
				(font
					(size 1.27 1.27)
				)
				(hide yes)
			)
		)
		(property "Value" "+5V"
			(at 170.18 69.977 0)
			(effects
				(font
					(size 0.889 0.889)
				)
			)
		)
		(property "Footprint" ""
			(at 170.18 71.755 0)
			(effects
				(font
					(size 1.27 1.27)
				)
				(hide yes)
			)
		)
		(property "Datasheet" ""
			(at 170.18 71.755 0)
			(effects
				(font
					(size 1.27 1.27)
				)
				(hide yes)
			)
		)
		(property "Description" "Generic positive power symbol"
			(at 170.18 71.755 0)
			(effects
				(font
					(size 1.27 1.27)
				)
				(hide yes)
			)
		)
		(pin "1"
			(uuid "38b53df4-fb86-4f7d-bd7e-eac4e44a5ed0")
		)
		(instances
			(project "7kcalibrator"
				(path "/e44db67c-7d9a-468c-83e4-b15a3f210f71/eff31b51-1614-4fcd-a3ab-7192996a1b7e"
					(reference "#PWR0222")
					(unit 1)
				)
			)
		)
	)
	(symbol
		(lib_id "xPower:+xV")
		(at 193.675 71.12 0)
		(unit 1)
		(exclude_from_sim no)
		(in_bom yes)
		(on_board yes)
		(dnp no)
		(uuid "ed524799-8514-45fe-9560-5cf7a5893bc0")
		(property "Reference" "#PWR0226"
			(at 193.675 74.93 0)
			(effects
				(font
					(size 1.27 1.27)
				)
				(hide yes)
			)
		)
		(property "Value" "+5V"
			(at 193.675 69.342 0)
			(effects
				(font
					(size 0.889 0.889)
				)
			)
		)
		(property "Footprint" ""
			(at 193.675 71.12 0)
			(effects
				(font
					(size 1.27 1.27)
				)
				(hide yes)
			)
		)
		(property "Datasheet" ""
			(at 193.675 71.12 0)
			(effects
				(font
					(size 1.27 1.27)
				)
				(hide yes)
			)
		)
		(property "Description" "Generic positive power symbol"
			(at 193.675 71.12 0)
			(effects
				(font
					(size 1.27 1.27)
				)
				(hide yes)
			)
		)
		(pin "1"
			(uuid "a486b47e-8e50-4495-ba13-b66d331ba3b4")
		)
		(instances
			(project "7kcalibrator"
				(path "/e44db67c-7d9a-468c-83e4-b15a3f210f71/eff31b51-1614-4fcd-a3ab-7192996a1b7e"
					(reference "#PWR0226")
					(unit 1)
				)
			)
		)
	)
	(symbol
		(lib_id "xDevice:C")
		(at 193.675 73.66 0)
		(unit 1)
		(exclude_from_sim no)
		(in_bom yes)
		(on_board yes)
		(dnp no)
		(uuid "fb840217-bcb3-42a9-8ac4-55a3fb83221c")
		(property "Reference" "C21"
			(at 197.485 73.025 0)
			(effects
				(font
					(size 0.889 0.889)
				)
			)
		)
		(property "Value" "100n"
			(at 197.485 74.295 0)
			(effects
				(font
					(size 0.889 0.889)
				)
			)
		)
		(property "Footprint" "xDevice:C_0402_1005Metric_Pad0.74x0.62mm_HandSolder"
			(at 193.675 73.66 0)
			(effects
				(font
					(size 1.27 1.27)
				)
				(hide yes)
			)
		)
		(property "Datasheet" "~"
			(at 193.675 73.66 0)
			(effects
				(font
					(size 1.27 1.27)
				)
				(hide yes)
			)
		)
		(property "Description" "Cap MLCC 100nF 25V X5R [0402]"
			(at 193.675 73.66 0)
			(effects
				(font
					(size 1.27 1.27)
				)
				(hide yes)
			)
		)
		(property "JLC" ""
			(at 193.675 73.66 0)
			(effects
				(font
					(size 1.27 1.27)
				)
				(hide yes)
			)
		)
		(property "BOM" "CAP-100N-25V-0402"
			(at 193.675 73.66 0)
			(effects
				(font
					(size 1.27 1.27)
				)
				(hide yes)
			)
		)
		(pin "1"
			(uuid "a5ed98bc-8853-474c-9c65-2d2d842d01fc")
		)
		(pin "2"
			(uuid "6e0991a5-d8e8-4a07-8a9f-38db7b16b78f")
		)
		(instances
			(project "7kcalibrator"
				(path "/e44db67c-7d9a-468c-83e4-b15a3f210f71/eff31b51-1614-4fcd-a3ab-7192996a1b7e"
					(reference "C21")
					(unit 1)
				)
			)
		)
	)
	(symbol
		(lib_id "xDevice:C")
		(at 104.14 86.995 0)
		(unit 1)
		(exclude_from_sim no)
		(in_bom yes)
		(on_board yes)
		(dnp no)
		(uuid "fdf04136-21ab-4f0a-9b10-b6986cd0fd15")
		(property "Reference" "C10"
			(at 107.315 86.36 0)
			(effects
				(font
					(size 0.889 0.889)
				)
			)
		)
		(property "Value" "10n"
			(at 107.315 87.63 0)
			(effects
				(font
					(size 0.889 0.889)
				)
			)
		)
		(property "Footprint" "Capacitor_SMD:C_0603_1608Metric"
			(at 104.14 86.995 0)
			(effects
				(font
					(size 1.27 1.27)
				)
				(hide yes)
			)
		)
		(property "Datasheet" "~"
			(at 104.14 86.995 0)
			(effects
				(font
					(size 1.27 1.27)
				)
				(hide yes)
			)
		)
		(property "Description" "Cap 10nF 25V [0603]"
			(at 104.14 86.995 0)
			(effects
				(font
					(size 1.27 1.27)
				)
				(hide yes)
			)
		)
		(property "BOM" "UNTR:Cap-10n-0603"
			(at 104.14 86.995 0)
			(effects
				(font
					(size 0.889 0.889)
				)
				(hide yes)
			)
		)
		(pin "1"
			(uuid "46917e63-8fc0-4ada-9352-768a2e6017b1")
		)
		(pin "2"
			(uuid "1f13e865-a7e3-4142-abb1-87056acc7c79")
		)
		(instances
			(project "7kcalibrator"
				(path "/e44db67c-7d9a-468c-83e4-b15a3f210f71/eff31b51-1614-4fcd-a3ab-7192996a1b7e"
					(reference "C10")
					(unit 1)
				)
			)
		)
	)
)
