M48
; DRILL file {KiCad 8.0.4} date 2024-09-02T14:07:23-0700
; FORMAT={-:-/ absolute / metric / decimal}
; #@! TF.CreationDate,2024-09-02T14:07:23-07:00
; #@! TF.GenerationSoftware,Kicad,Pcbnew,8.0.4
; #@! TF.FileFunction,Plated,1,4,PTH
FMAT,2
METRIC
; #@! TA.AperFunction,Plated,PTH,ViaDrill
T1C0.300
; #@! TA.AperFunction,Plated,PTH,ComponentDrill
T2C1.000
; #@! TA.AperFunction,Plated,PTH,ComponentDrill
T3C1.300
%
G90
G05
T1
X94.488Y-119.38
X94.996Y-102.87
X94.996Y-139.7
X96.774Y-55.372
X96.774Y-85.598
X96.901Y-69.088
X97.536Y-88.9
X97.663Y-75.819
X97.663Y-81.153
X97.79Y-58.42
X97.79Y-60.96
X97.79Y-63.5
X97.79Y-66.04
X97.79Y-104.14
X98.552Y-104.14
X98.806Y-106.934
X100.33Y-100.584
X100.33Y-101.346
X100.457Y-98.89
X100.584Y-82.55
X100.584Y-87.63
X100.584Y-90.17
X100.838Y-92.71
X101.346Y-90.17
X101.6Y-92.71
X101.6Y-124.46
X102.489Y-124.46
X102.489Y-130.81
X102.997Y-115.824
X103.505Y-131.191
X103.759Y-115.824
X104.267Y-129.032
X104.902Y-129.794
X106.172Y-142.24
X107.95Y-141.224
X109.22Y-139.7
X109.728Y-137.16
X110.744Y-138.43
X111.252Y-134.62
X111.812Y-129.667
X114.554Y-116.924
X115.316Y-116.924
X115.854Y-109.22
X116.586Y-109.22
X117.602Y-106.934
X118.618Y-133.604
X119.38Y-95.25
X119.38Y-97.79
X119.38Y-132.08
X121.412Y-123.19
X121.412Y-123.952
X123.19Y-127.127
X123.698Y-105.664
X123.952Y-108.204
X124.46Y-126.327
X124.714Y-122.428
X125.73Y-90.17
X125.73Y-92.71
X125.73Y-95.25
X125.73Y-97.79
X126.746Y-105.664
X127.508Y-105.664
X128.032Y-104.156
X128.913Y-104.648
X131.356Y-106.426
X131.953Y-109.093
X132.08Y-121.074
X132.461Y-108.585
X132.588Y-136.144
X133.858Y-110.998
X134.62Y-120.904
X135.461Y-114.046
X137.16Y-129.794
X139.7Y-76.2
X139.7Y-76.962
X143.637Y-82.931
X143.891Y-57.531
X144.653Y-82.423
X144.78Y-54.61
X151.384Y-114.3
X151.46Y-79.045
X151.511Y-140.005
X152.146Y-114.3
X152.298Y-140.005
X152.324Y-79.045
T2
X103.623Y-52.07
X103.623Y-54.61
X103.623Y-57.15
X103.623Y-59.69
X103.623Y-62.23
X103.623Y-64.77
X103.623Y-67.31
X103.623Y-69.85
X103.623Y-72.39
X103.623Y-74.93
X103.623Y-77.47
X103.623Y-80.01
X103.623Y-82.55
X103.623Y-85.09
X103.623Y-87.63
X103.623Y-90.17
X103.623Y-92.71
X103.623Y-95.25
X103.623Y-97.79
X103.623Y-100.33
X106.162Y-52.07
X106.162Y-54.61
X106.162Y-57.15
X106.162Y-59.69
X106.162Y-62.23
X106.162Y-64.77
X106.162Y-67.31
X106.162Y-69.85
X106.162Y-72.39
X106.162Y-74.93
X106.162Y-77.47
X106.162Y-80.01
X106.162Y-82.55
X106.162Y-85.09
X106.162Y-87.63
X106.162Y-90.17
X106.162Y-92.71
X106.162Y-95.25
X106.162Y-97.79
X106.162Y-100.33
X114.817Y-52.07
X114.817Y-54.61
X114.817Y-57.15
X114.817Y-59.69
X114.817Y-62.23
X114.817Y-64.77
X114.817Y-67.31
X114.817Y-69.85
X114.817Y-72.39
X114.817Y-74.93
X114.817Y-77.47
X114.817Y-80.01
X114.817Y-82.55
X114.817Y-85.09
X114.817Y-87.63
X114.817Y-90.17
X114.817Y-92.71
X114.817Y-95.25
X114.817Y-97.79
X114.817Y-100.33
X117.358Y-52.07
X117.358Y-54.61
X117.358Y-57.15
X117.358Y-59.69
X117.358Y-62.23
X117.358Y-64.77
X117.358Y-67.31
X117.358Y-69.85
X117.358Y-72.39
X117.358Y-74.93
X117.358Y-77.47
X117.358Y-80.01
X117.358Y-82.55
X117.358Y-85.09
X117.358Y-87.63
X117.358Y-90.17
X117.358Y-92.71
X117.358Y-95.25
X117.358Y-97.79
X117.358Y-100.33
X121.412Y-109.22
X121.412Y-115.824
X125.984Y-55.88
X125.984Y-60.96
X125.984Y-66.04
X127.508Y-109.22
X127.508Y-115.824
X128.778Y-58.42
X128.778Y-63.5
X130.81Y-124.46
X131.572Y-55.88
X131.572Y-60.96
X131.572Y-66.04
X132.08Y-71.12
X132.715Y-48.26
X134.366Y-58.42
X134.366Y-63.5
X135.89Y-50.8
X138.938Y-91.186
X138.938Y-97.79
X138.938Y-101.6
X138.938Y-106.68
X138.938Y-111.76
X138.938Y-116.84
X138.938Y-120.904
X138.938Y-127.0
X138.938Y-132.08
X138.938Y-137.16
X138.938Y-142.24
X139.065Y-48.26
X139.192Y-53.34
X141.478Y-104.14
X141.478Y-123.952
X141.478Y-129.54
X141.478Y-134.62
X142.24Y-50.8
X142.24Y-55.88
X144.018Y-91.186
X144.018Y-97.79
X144.018Y-101.6
X144.018Y-106.68
X144.018Y-111.76
X144.018Y-116.84
X144.018Y-120.65
X144.018Y-127.0
X144.018Y-132.08
X144.018Y-137.16
X144.018Y-142.24
X146.05Y-71.12
X146.812Y-123.952
X146.812Y-129.54
X146.812Y-134.62
X146.812Y-139.7
X147.066Y-104.14
X147.066Y-109.22
X147.32Y-114.3
X149.86Y-114.3
T3
X139.7Y-78.74
X142.24Y-78.74
M30
