M48
; DRILL file {KiCad 7.99.0-3135-gc9d6e79d2d} date 2023-10-08T18:40:35-0700
; FORMAT={-:-/ absolute / metric / decimal}
; #@! TF.CreationDate,2023-10-08T18:40:35-07:00
; #@! TF.GenerationSoftware,Kicad,Pcbnew,7.99.0-3135-gc9d6e79d2d
; #@! TF.FileFunction,NonPlated,1,4,NPTH
FMAT,2
METRIC
; #@! TA.AperFunction,NonPlated,NPTH,ComponentDrill
T1C3.200
%
G90
G05
T1
X103.505Y-50.8
X103.505Y-139.7
T0
M30
